﻿######################################################
#示例代码中从该文件解析获取配置信息，运行示例代码前请先填写正确的授权信息#
#该配置文件中以“#”作为注释符号，空行不解析，填写时只要在需要填写的字段后面填写即可#
######################################################

#应用程序序号
appKey=a05d544d

#开发者密钥
developerKey=8c7e4818a77c0ba1a97964b3e29f5004

#灵云云服务的接口地址 
cloudUrl=test.api.hcicloud.com:8888

#需要运行的灵云能力
capKey=ocr.local.template.v6
#capKey=ocr.local.bizcard
#capKey=ocr.local