﻿薬品ｺｰﾄﾞ,薬品名
999999,ﾃｽﾄ薬品
ｱｰﾁ1,ｱｰﾁｽﾄ錠1.25mg
ｱｰﾁ2.5,ｱｰﾁｽﾄ錠2.5㎎
ｱｰﾁｽ10,ｱｰﾁｽﾄ錠10mg
ｱｲﾄ2,ｱｲﾄﾛｰﾙ錠 20mg
ｱｲﾋ,ｱｲﾋﾟｰﾃﾞｨｰｶﾌﾟｾﾙ100mg
ｱｲﾐ,ｱｲﾐｸｽ配合錠LD
ｱｲﾐHD,ｱｲﾐｸｽ配合錠ＨＤ★
ｱｶﾙﾃ,ｱｶﾙﾃﾞｨｶﾌﾟｾﾙ1.25
ｱｷﾈ1,ｱｷﾈﾄﾝ1mg
ｱｸﾄ15,ｱｸﾄｽ錠15mg
ｱｸﾄ25,ｱｸﾄﾈﾙ錠2.5mg
ｱｸﾄ3,ｱｸﾄｽ錠 30mg
ｱｸﾄｽ,ｱｸﾄｽOD錠15㎎★
ｱｺﾌ,ｱｺﾌｧｲﾄﾞ錠100mg
ｱｻﾞ,ｱｻﾞﾆﾝ錠50mg
ｱｻｼ,ｱｻｼｵﾝ 0.25mg
ｱｻﾙ,ｱｻﾞﾙﾌｨｼﾞﾝEN錠250mg
ｱｻﾙ500,ｱｻﾞﾙﾌｨｼﾞﾝEN錠500mg
ｱｼ75,ｱｼﾉﾝ錠75mg★
ｱｼﾉﾝ15,ｱｼﾉﾝ錠150mg
ｱｼﾔ,ｱｼﾞｬｽﾄAｺｰﾜ錠40mg
ｱｼﾙ,ｱｼﾞﾙﾊﾞ錠40㎎
ｱｼﾙ10,ｱｼﾞﾙﾊﾞ錠10mg★
ｱｼﾙ20,ｱｼﾞﾙﾊﾞ錠20mg★
ｱｽ,ｱｽﾊﾟﾗCA200
ｱｽｹ300,ｱｽｹｰﾄ錠 300mg
ｱｽﾄ,ｽﾄﾐﾝA配合錠
ｱｽﾄﾌ,ｱｽﾄﾌｨﾘﾝ配合錠
ｱｽﾄﾓ,ｱｽﾄﾓﾘｼﾞﾝD錠
ｱｽﾊK,ｱｽﾊﾟﾗK錠
ｱｽﾊﾗ,ｱｽﾊﾟﾗｷﾞﾝCa200ｻﾜｲ
ｱｽﾍ,ｱｽﾍﾞﾘﾝ錠20mg
ｱｽﾍ10,ｱｽﾍﾟﾉﾝｶﾌﾟｾﾙ10
ｱｽﾍ20,ｱｽﾍﾟﾉﾝｶﾌﾟｾﾙ20mg★
ｱｾﾄ,ｱｾﾄｱﾐﾉﾌｪﾝ錠200㎎
ｱｾﾌ1,ｱｾﾞﾌﾟﾁﾝ錠1mg
ｱｾﾞﾙ,ｱｾﾞﾙｼﾞﾆﾋﾟﾝ8mg　｢NP｣
ｱｾﾙ16,アゼルニジピン１６ｍｇ
ｱｿｾ,ｱｿﾞｾﾐﾄﾞ錠30mgJG
ｱｿﾞｾ60,ｱｿﾞｾﾐﾄﾞ錠60mg
ｱｿﾘ,ｱｿﾞﾘﾀﾝ錠0.4㎎
ｱｿﾘ04,"ｱｿﾞﾘﾀﾝ錠0,4"
ｱﾀﾞﾗ,ｱﾀﾞﾗｰﾄｶﾌﾟｾﾙ5mg
ｱﾀﾗ10,ｱﾀﾗｯｸｽ(10mg)
ｱﾀﾗ20,ｱﾀﾞﾗｰﾄL錠20mg
ｱﾀﾗ25,ｱﾀﾗｯｸｽ錠25mg★
ｱﾀﾗ40,ｱﾀﾞﾗｰﾄCR40mg
ｱﾀﾗcp,★ｱﾀﾞﾗｰﾄｶﾌﾟｾﾙ10㎎★
ｱﾀﾗCR1,ｱﾀﾞﾗｰﾄCR錠10mg
ｱﾀﾗCR2,ｱﾀﾞﾗｰﾄCR20mg
ｱﾀﾗL10,ｱﾀﾞﾗｰﾄL錠10mg
ｱﾀﾗP25,ｱﾀﾗｯｸｽPｶﾌﾟｾﾙ(25mg)
ｱﾁｽ,ｱｰﾁｽﾄ錠1.25㎎
ｱﾁｽ10,ｱｰﾁｽﾄ錠10mg
ｱﾁｽ20,ｱｰﾁｽﾄ錠20mg
ｱﾁｽ25,ｱｰﾁｽﾄ2.5mg
ｱﾁﾜ10,ｱｰﾁﾜﾝ錠10
ｱﾃｶ15,ｱﾃﾞｶｯﾄ15mg
ｱﾃﾃﾞ,ｱﾃﾃﾞｨｵ配合錠
ｱﾃﾉ,ｱﾃﾉﾛｰﾙ錠25mg日医工
ｱﾃﾎ,ｱﾃﾞﾎｽｺｰﾜ腸溶錠60mg★
ｱﾃﾎ20,ｱﾃﾞﾎｽｺｰﾜ腸溶錠20
ｱﾃﾚ,ｱﾃﾚｯｸ錠10mg
ｱﾃﾚ5,ｱﾃﾚｯｸ錠5mg★
ｱﾃﾚｯｸ,ｱﾃﾚｯｸ5mg
ｱﾃﾝ2,ｱｰﾃﾝ錠2mg
ｱﾄﾅ10,ｱﾄﾞﾅ錠10㎎
ｱﾄﾅ3,ｱﾄﾞﾅ30mg
ｱﾄﾙ,ｱﾄﾙﾊﾞｽﾀﾁﾝ錠10㎎
ｱﾄﾙ5,ｱﾄﾙﾊﾞｽﾀﾁﾝ錠5mg★
ｱﾄﾙﾊﾞ,ｱﾄﾙﾊﾞｽﾀﾁﾝ5mg「ﾄｰﾜ」
ｱﾅﾌ10,ｱﾅﾌﾗﾆｰﾙ錠10mg
ｱﾊﾌ100,ｱﾊﾞﾌﾟﾛ錠100㎎
ｱﾊﾌ50,アバプロ５０ｍｇ
ｱﾋﾘ50,ｱﾋﾞﾘｯﾄｶﾌﾟｾﾙ50mg
ｱﾌﾚ,ｱﾌﾟﾚｰｽ錠100mg
ｱﾍﾛ,ｱﾍﾞﾛｯｸｽ錠400mg
ｱﾎ,ｱﾎﾞﾙﾌﾞ0.5
ｱﾏﾘ,ｱﾏﾘｰﾙOD錠0.5mg
ｱﾏﾘ1,ｱﾏﾘｰﾙ錠1mg
ｱﾏﾘ3,ｱﾏﾘｰﾙ錠3mg
ｱﾏﾘ5,ｱﾏﾘｰﾙ錠0.5㎎★
ｱﾏﾘO,ｱﾏﾘｰﾙOD錠1mg
ｱﾏﾝ,ｱﾏﾝﾀｼﾞﾝ錠50mg日医工
ｱﾐｻ12,ｱﾐｻﾘﾝ錠 125mg
ｱﾐﾃ,ｱﾐﾃｨｰｻﾞｶﾌﾟｾﾙ24μg
ｱﾑ,ｱﾑﾛｼﾞﾋﾟﾝ2.5mg「ﾄｰﾜ」
ｱﾑOD５,ｱﾑﾛｼﾞﾝOD錠５ｍｇ
ｱﾑﾊﾞ,ｱﾑﾊﾞﾛ配合錠
ｱﾑﾛ,ｱﾑﾛｼﾞﾋﾟﾝOD錠2.5㎎明治★
ｱﾑﾛ10,ｱﾑﾛｼﾞﾝOD10mg
ｱﾑﾛ2.5,ｱﾑﾛｼﾞﾝOD錠2.5㎎
ｱﾑﾛ25,"ｱﾑﾛｼﾞﾝ錠2,5"
ｱﾑﾛ5,ｱﾑﾛｼﾞﾝ錠5mg
ｱﾑﾛOD,ｱﾑﾛｼﾞﾋﾟﾝOD2.5mg「ﾄｰﾜ」
ｱﾑﾛOD5,ｱﾑﾛｼﾞﾋﾟﾝOD錠5㎎明治★
ｱﾑﾛｼ,ｱﾑﾛｼﾞﾋﾟﾝ錠5mg明治★
ｱﾑﾛｼﾞ,ｱﾑﾛｼﾞﾋﾟﾝ5mg「ﾄｰﾜ」
ｱﾑﾛｼ2.,ｱﾑﾛｼﾞﾋﾟﾝ錠2.5㎎明治★
ｱﾑﾛｼﾞﾋﾟ,ｱﾑﾛｼﾞﾋﾟﾝOD5mg「ﾄｰﾜ」
ｱﾓｷ,ｱﾓｷｻﾝｶﾌﾟｾﾙ25mg
ｱﾓｷ10,ｱﾓｷｻﾝｶﾌﾟｾﾙ10mg
ｱﾓﾊ1,ｱﾓﾊﾞﾝ錠 10mg
ｱﾓﾊ75,"ｱﾓﾊﾞﾝ7,5"
ｱﾗ,ｱﾗﾝﾀSF
ｱﾘｾ,ｱﾘｰｾﾞS配合錠
ｱﾘｾ1,ｱﾘｾﾌﾟﾄ10mg
ｱﾘｾ3,ｱﾘｾﾌﾟﾄ錠 3mg
ｱﾘｾ5,ｱﾘｾﾌﾟﾄ錠5mg
ｱﾘｾD1,ｱﾘｾﾌﾟﾄD10mg
ｱﾘｾD3,ｱﾘｾﾌﾟﾄD錠 3mg
ｱﾘｾD5,ｱﾘｾﾌﾟﾄD錠5mg
ｱﾘﾅ5,5mgｱﾘﾅﾐﾝF糖衣錠★
ｱﾘﾅF25,ｱﾘﾅﾐﾝF糖衣錠25mg
ｱﾘﾋﾟ,ｱﾘﾋﾟﾌﾟﾗｿﾞｰﾙ6mg｢ｱﾒﾙ｣
ｱﾘﾋﾟﾌﾟ,ｱﾘﾋﾟﾌﾟﾗｿﾞｰﾙ6mg「明治」
ｱﾘﾐ1,ｱﾘﾐﾃﾞｯｸｽ錠 1mg
ｱﾙ,ｱﾙﾌｧｶｼﾄﾞｰﾙｶﾌﾟｾﾙ1μ「ﾃﾊﾞ」
ｱﾙ025,ｱﾙﾌｧｶﾙｼﾄﾞｰﾙｶﾌﾟｾﾙ0.25μg
ｱﾙｻ,ｱﾙｻﾙﾐﾝ錠
ｱﾙｼ0.5,ｱﾙｼｵﾄﾞｰﾙｶﾌﾟｾﾙ0.5μg
ｱﾙﾀ25,ｱﾙﾀﾞｸﾄﾝA錠25mg
ｱﾙﾀ5,ｱﾙﾀﾞｸﾄﾝA錠 50mg
ｱﾙﾀ75,ｱﾙﾀｯﾄｶﾌﾟｾﾙ75
ｱﾙﾄ,ｱﾙﾄﾞﾒｯﾄ錠125㎎
ｱﾙﾄ250,ｱﾙﾄﾞﾒｯﾄ錠250㎎★
ｱﾙﾌ,ｱﾙﾌｧﾛｰﾙｶﾌﾟｾﾙ 0.5μmg
ｱﾙﾌﾟ,ｱﾙﾌﾟﾗｿﾞﾗﾑ0.4mg「ﾄｰﾜ」
ｱﾙﾌ01,ｱﾙﾌｧｽﾘｰｶﾌﾟｾﾙ1μg★
ｱﾙﾌ025,"ｱﾙﾌｧﾛｰﾙｶﾌﾟｾﾙ0,25μg"
ｱﾙﾌ05,ｱﾙﾌｧｽﾘｰｶﾌﾟｾﾙ0.5μg★
ｱﾙﾌ1,ｱﾙﾌｧﾛｰﾙｶﾌﾟｾﾙ1μg
ｱﾙﾌｶ0.25,ｱﾙﾌｧｶﾙｼﾄﾞｰﾙ0.25
ｱﾙﾌﾗ,ｱﾙﾌﾟﾗｿﾞﾗﾑ錠0.4mgｻﾜｲ
ｱﾙﾌﾟﾗ,ｱﾙﾌﾟﾗｿﾞﾗﾑ0.4mg「ﾄｰﾜ」
ｱﾙﾌ沢井,ｱﾙﾌｧｶﾙｼﾄﾞｰﾙｶﾌﾟｾﾙ1μg沢井
ｱﾙﾏ,ｱﾙﾏｰﾙ錠10㎎
ｱﾙﾏ5,×ｱﾙﾏｰﾙ錠5㎎
ｱﾚｸﾞ3,ｱﾚｸﾞﾗ錠30mg★
ｱﾚｸ60,ｱﾚｸﾞﾗ錠60mg
ｱﾚｸOD,ｱﾚｸﾞﾗOD錠60mg★
ｱﾚｼ10,ｱﾚｼﾞｵﾝ錠10
ｱﾚｼ20,ｱﾚｼﾞｵﾝ錠20mg
ｱﾚﾋﾞｱ,ｱﾚﾋﾞｱﾁﾝ錠100mg
ｱﾚﾛ25,ｱﾚﾛｯｸ錠2.5mg
ｱﾚﾛ5,ｱﾚﾛｯｸ錠5mg
ｱﾚﾛOD,ｱﾚﾛｯｸOD錠5㎎
ｱﾛﾁ,×ｱﾛﾁｰﾑ錠「ｻﾜｲ」
ｱﾛﾁ1,ｱﾛﾁﾉﾛｰﾙ塩酸塩錠10mg★
ｱﾛﾁﾉ,ｱﾛﾁﾉﾛｰﾙ錠5mg
ｱﾛﾌ,ｱﾛﾌﾟﾘﾉｰﾙ錠100mgｱﾒﾙ
ｱﾛﾌ0.5,ｱﾛﾌｧﾙﾑ錠0.5㎎
ｱﾛﾌ100,ｱﾛﾌﾟﾘﾉｰﾙ錠100沢井
ｱﾛﾌﾄ,ｱﾛﾌﾄ錠20mg
ｱﾛﾌﾟﾘ,ｱﾛﾌﾟﾘﾉｰﾙ100mg「ﾄｰﾜ」
ｱﾛﾏ,ｱﾛﾏｼﾝ錠25mg
ｱﾝｶ,ｱﾝｶﾛﾝ錠100mg
ｱﾝｷ25,ｱﾝｷﾞﾅｰﾙ錠25mg
ｱﾝﾃ,ｱﾝﾃﾞﾌﾟﾚ錠50mg
ｱﾝﾌ,ｱﾝﾌﾞﾛｷｿｰﾙ錠15mgﾀﾅﾍﾞ
ｱﾝﾌﾞ,ｱﾝﾌﾞﾛｷｿｰﾙ塩酸塩錠15mg
ｱﾝﾌ1,ｱﾝﾌﾟﾗｰｸﾞ錠100mg
ｱﾝﾌ50,ｱﾝﾌﾟﾗｰｸﾞ錠50mg★
ｱﾝﾌOD45,ｱﾝﾌﾞﾛｷｿｰﾙ徐放OD錠45mg
ｱﾝﾌﾞﾛ,ｱﾝﾌﾞﾛｷｿｰﾙ15mg「ﾄｰﾜ」
ｲｰｹ500,ｲｰｹﾌﾞﾗ錠500㎎
ｲｸｻ,ｲｸﾞｻﾞﾚﾙﾄ錠10mg
ｲｸｻ15★,ｲｸﾞｻﾞﾚﾙﾄ15mg
ｲｹﾌ500,イーケプラ５００
ｲｺｻ,ｲｺｻﾍﾟﾝﾄ酸ｴﾁﾙｶﾌﾟｾﾙ300mg
ｲｺｻﾍﾟ,ｲｺｻﾍﾟﾝﾄ酸ｴﾁﾙｶﾌﾟｾﾙ300mg「ﾄｰﾜ」
ｲｼﾄ,ｲｰｼｰﾄﾞﾊﾟｰﾙ錠
ｲｽｺ100,ｲｽｺﾁﾝ錠100mg
ｲｿｺ,ｲｿｺﾅｰﾙRｶﾌﾟｾﾙ
ｲｿｺﾅ,ｲｿｺﾛﾅｰﾙRｶﾌﾟｾﾙ20mg「日医工」
ｲｿｿ20,ｲｿｿﾙﾋﾞﾄﾞ錠20mg沢井
ｲｿﾆ,ｲｿﾒﾆｰﾙｶﾌﾟｾﾙ7.5mg
ｲｿﾆ2,ｲｿﾆﾄｰﾙ錠20mg
ｲﾄﾌ,ｲﾄﾌﾟﾘﾄﾞ錠50mgCH
ｲﾄﾗ,ｲﾄﾗｺﾅｿﾞｰﾙ錠50mg「科研」
ｲﾄﾘ5,ｲﾄﾘｿﾞｰﾙｶﾌﾟｾﾙ 50mg
ｲﾋｴ,EPLｶﾌﾟｾﾙ250mg
ｲﾌｴ,イフェクサーＳＲ
ｲﾑﾗ,イムラン錠50ｍｇ
ｲﾘﾎﾞ,ｲﾘﾎﾞｰOD2.5mg
ｲﾘﾎ5,ｲﾘﾎﾞｰ錠5mg
ｲﾘﾎﾞｰ2.5μｇ,ｲﾘﾎﾞｰ錠2.5μｇ
ｲﾙｿ2,イルソグラジン２ｍｇ
ｲﾙﾄ,イルトラ配合錠LD
ｲﾙﾍ100,ｲﾙﾍﾞﾀﾝ錠100㎎
ｲﾙﾍ50,ｲﾙﾍﾞﾀﾝ錠50mg★
ｲﾝﾃ,ｲﾝﾃﾞﾗﾙ錠10㎎
ｲﾝﾋ1,ｲﾝﾋﾍﾞｰｽ錠1mg
ｲﾝﾌ,ｲﾝﾌﾟﾛﾒﾝ錠1㎎
ｲﾝﾌ1,ｲﾝﾌﾘｰｶﾌﾟｾﾙ100mg
ｳﾌﾃ,ｳﾌﾞﾃｯｸ錠5mg
ｳﾌﾚ05,ｳﾌﾞﾚﾁﾄﾞ錠5mg
ｳﾗﾘ,ｳﾗﾘｯﾄ錠
ｳﾘﾄ,ｳﾘﾄｽ錠0.1mg
ｳﾘﾄｽ,ｳﾘﾄｽOD錠0.1mg
ｳﾙ,ｳﾙｿﾃﾞｵｷｼｺｰﾙ100mg「ﾄｰﾜ」
ｳﾙｸ,ｳﾙｸﾞｰﾄｶﾌﾟｾﾙ
ｳﾙｿ100,ｳﾙｿ錠100mg
ｳﾙｿ5,ｳﾙｿ錠50mg★
ｳﾙｿﾃ100,ｳﾙｿﾃﾞｵｷｼｺｰﾙ錠100mg沢井
ｳﾙﾃ,ｳﾙﾃﾞﾅｼﾝ錠50㎎
ｳﾛｶ,ｳﾛｶﾙﾝ錠225
ｴｶﾃﾘ,ｴｶﾃﾘｼﾝ錠10㎎
ｴｶﾄ,ｴｶｰﾄﾞHD配合錠
ｴｶﾄLD,ｴｶｰﾄﾞ配合錠LD★
ｴｸｱ,ｴｸｱ錠50㎎
ｴｸｾｸ,ｴｸｾｸﾞﾗﾝ錠 100mg
ｴｸｾﾗ,ｴｸｾﾗｰｾﾞ錠
ｴｸﾒ,ｴｸﾒｯﾄLD錠
ｴｻﾝ,ｴｻﾝﾌﾞﾄｰﾙ錠250㎎
ｴｽｺ2,ｴｰｽｺｰﾙ錠 2mg
ｴｽｺ4,ｴｰｽｺｰﾙ錠 4mg
ｴｽﾄ,ｴｽﾄﾗｻｲﾄｶﾌﾟｾﾙ156.7mg
ｴﾁｿ,ｴﾁｿﾞﾗﾑ錠0.5mg
ｴﾁｿ1,ｴﾁｿﾞﾗﾑ錠1mgｻﾜｲ
ｴﾂｸ,ｴｯｸｽﾌｫｰｼﾞｰ配合錠
ｴﾂｸO,エックスフォージーＯＤ
ｴﾃｲ,ｴﾃﾞｨﾛｰﾙｶﾌﾟｾﾙ0.75μg
ｴﾃｲ0.5,ｴﾃﾞｨﾛｰﾙｶﾌﾟｾﾙ0.5μｇ★
ｴﾄﾄ,ｴﾄﾄﾞﾗｸ錠200mg
ｴﾅﾗ,ｴﾅﾗﾌﾟﾘﾙﾏﾚｲﾝ酸塩錠5mg
ｴﾅﾗ2.5,ｴﾅﾗﾌﾟﾘﾙﾏﾚｲﾝ酸塩錠2.5mg★
ｴﾅﾗM,ｴﾅﾗﾌﾟﾘﾙM錠2.5EMEC★
ｴﾅﾗﾌ,ｴﾅﾗﾌﾟﾘﾙﾏﾚｲﾝ2.5mg「ﾄｰﾜ」
ｴﾊﾞｽ,ｴﾊﾞｽﾃﾙＯＤ5ｍｇ
ｴﾊｽO5,ｴﾊﾞｽﾃﾙOD錠 10mg
ｴﾊﾃｶ,ｴﾊﾟﾃﾞｰﾙｶﾌﾟｾﾙ 300mg
ｴﾊﾐ1,ｴﾊﾞﾐｰﾙ錠1.0
ｴﾋｽ60,ｴﾋﾞｽﾀ錠60mg
ｴﾋﾅ2,塩酸ｴﾋﾟﾅｽﾁﾝ錠 20mg
ｴﾋﾌ,ｴﾋﾞﾌﾟﾛｽﾀｯﾄ錠
ｴﾋﾌ2,ｴﾋﾞﾌﾟﾛｽﾀｯﾄ配合錠ＳＧ
ｴﾋﾌDB,ｴﾋﾞﾌﾟﾛｽﾀｯﾄ配合錠DB
ｴﾋﾞﾘ,ｴﾋﾞﾘﾌｧｲ錠12mg
ｴﾋﾞﾘ1,ｴﾋﾞﾘﾌｧｲ錠1mg
ｴﾋﾘ3,ｴﾋﾞﾘﾌｧｲ錠3mg
ｴﾋﾘ6,ｴﾋﾞﾘﾌｧｲ錠6mg
ｴﾌｨ,ｴﾌｨｴﾝﾄ錠3.75mg
ｴﾌﾄ,ｴﾌﾞﾄｰﾙ錠250mg
ｴﾌﾋO2,ｴﾌﾋﾟｰOD錠2.5mg
ｴﾌﾗ15,ｴﾌﾞﾗﾝﾁﾙｶﾌﾟｾﾙ 15mg
ｴﾌﾗ3,ｴﾌﾞﾗﾝﾁﾙｶﾌﾟｾﾙ30mg
ｴﾎﾁ,ｴﾎﾁｰﾙ錠5mg
ｴﾘｷ,ｴﾘｷｭｰｽ錠2.5mg
ｴﾘｷ5,ｴﾘｷｭｰｽ錠５ｍｇ
ｴﾘｽ,ｴﾘｽﾊﾟﾝ錠0.25mg
ｴﾘｽ1,ｴﾘｽﾛｼﾝ錠100mg★
ｴﾘｽ200,ｴﾘｽﾛｼﾝ錠200mg
ｴﾘｽﾛ,ｴﾘｽﾛﾏｲｼﾝ200mg「ｻﾜｲ」
ｴﾘﾃ,ｴﾘｰﾃﾝ錠5mg
ｴﾘﾐ,ｴﾘﾐﾝ錠5㎎
ｴﾙｱ,Lｱｽﾊﾟﾗｷﾞﾝ酸200
ｴﾝｶ,★塩化ﾘｿﾞﾁｰﾑ錠90㎎
ｴﾝｻ,塩酸ｴﾋﾟﾅｽﾁﾝ10mg
ｴﾝｻ02,塩酸ﾀﾑｽﾛｼﾝOD錠0.2mgSW
ｴﾝｻﾝ,塩酸ｴﾋﾟﾅｽﾁﾝ20mg「ﾄｰﾜ」
ｴﾝﾀ,ｴﾝﾀｶﾎﾟﾝ錠100mg
ｴﾝﾄ,ｴﾝﾄﾞｷｻﾝ錠50mg
ｴﾝﾄP50,ｴﾝﾄﾞｷｻﾝP錠50mg
ｴﾝﾋ,ｴﾝﾋﾟﾅｰｽP錠18000
ｴﾝﾋﾅ,ｴﾝﾋﾟﾅｰｽPｶﾌﾟｾﾙ9000
ｵｲｸ125,"ｵｲｸﾞﾙｺﾞﾝ錠1,25mg"
ｵｲｸ25,ｵｲｸﾞﾙｺﾞﾝ錠2.5mg
ｵｰｸﾞ,ｵｰｸﾞﾒﾝﾁﾝ250mg
ｵｰﾈｽ,ｵｰﾈｽSPｶﾌﾟｾﾙ
ｵｷｼ,ｵｷｼｺﾝﾁﾝ
ｵｽﾃ200,ｵｽﾃﾗｯｸ錠200
ｵｽﾎ50,オスポロット５０
ｵｾﾞ,ｵｾﾞｯｸｽ錠　75mg
ｵｾﾂ150,ｵｾﾞｯｸｽ錠150
ｵﾀｲ,ｵﾀﾞｲﾝ錠125mg
ｵﾈ,ｵｰﾈｽSP
ｵﾉﾝ,ｵﾉﾝｶﾌﾟｾﾙ
ｵﾊﾌ,ｵﾊﾟﾌﾟﾛｽﾓﾝ5μmg
ｵﾊﾙ,ｵﾊﾟﾙﾓﾝ錠
ｵﾌﾁ,ｵﾌﾟﾁﾗﾝ錠5μg
ｵﾒ10,ｵﾒﾌﾟﾗｰﾙ10mg
ｵﾒﾌ10,ｵﾒﾌﾟﾗｿﾞｰﾙ10mg日医工
ｵﾒﾌ20,ｵﾒﾌﾟﾗｰﾙ錠20
ｵﾒﾌﾟﾗ,ｵﾒﾌﾟﾗｿﾞｰﾙ20mg「ﾄｰﾜ」
ｵﾒﾌﾗ20,ｵﾒﾌﾟﾗｿﾞｰﾙ錠20㎎ｱﾒﾙ
ｵﾒﾗ,ｵﾒﾗｯﾌﾟ錠10㎎
ｵﾙﾒ,ｵﾙﾒﾃｯｸ錠5㎎
ｵﾙﾒ10,ｵﾙﾒﾃｯｸ錠10mg
ｵﾙﾒ20,ｵﾙﾒﾃｯｸ20mg
ｵﾙﾒ40,ｵﾙﾒﾃｯｸ錠40㎎
ｵﾙﾒOD,ｵﾙﾒﾃｯｸOD錠10mg
ｵﾙﾒOD20,ｵﾙﾒﾃｯｸOD20mg
ｵﾙﾒｻ,ｵﾙﾒｻﾙﾀﾝOD20mg「ﾄｰﾜ」
ｵﾙﾒｻﾙ,ｵﾙﾒｻﾙﾀﾝOD20mg
ｵﾙﾒｻﾙﾀ,ｵﾙﾒｻﾙﾀﾝOD40mg「ﾄｰﾜ」
ｵﾙﾒﾃ,ｵﾙﾒﾃｯｸOD40mg
ｵﾛ,ｵﾛﾊﾟﾀｼﾞﾝOD5mg「ﾄｰﾜ」
ｵﾛﾊ,ｵﾛﾊﾟﾀｼﾞﾝ錠5㎎明治
ｵﾛﾊﾟ,ｵﾛﾊﾟﾀｼﾞﾝ塩酸塩錠5mg「ﾄｰﾜ」
ｵﾛﾊOD,ｵﾛﾊﾟﾀｼﾞﾝOD錠5mg明治
ｵﾝｸﾞ,ｵﾝｸﾞﾘｻﾞ錠2.5mg
ｶｽｵ40,ｶﾞｽｵｰﾙ錠40㎎
ｶｽｺ40,ｶﾞｽｺﾝ錠40mg
ｶｽｺ80,ｶﾞｽｺﾝ錠80mg★
ｶﾞｽｻ,ｶﾞｽｻｰﾙ錠40mg
ｶｽﾀ10,ｶﾞｽﾀｰ錠10mg
ｶｽﾀ20,ｶﾞｽﾀｰ錠20mg
ｶｽﾀD10,ｶﾞｽﾀｰD10mg
ｶｽﾀD20,ｶﾞｽﾀｰD錠20mg
ｶｽﾎ20,ｶﾞｽﾎﾟｰﾄ錠20mg
ｶｽﾓ5,ｶﾞｽﾓﾁﾝ錠5mg
ｶｽﾘ2,ｶﾞｽﾘｯｸD 20mg
ｶｽﾛOD,ｶﾞｽﾛﾝNOD錠2㎎
ｶﾞｽﾛOD,ガスロンN・OD錠4ｍｇ
ｶｿﾃ80,ｶｿﾃﾞｯｸｽ錠80mg
ｶｿﾃOD,ｶｿﾃﾞｯｸｽOD錠80mg
ｶﾀﾌ,ｶﾀﾌﾟﾚｽ錠75μg
ｶﾀﾌ15,ｶﾀﾌﾟﾚｽ錠150μmg
ｶﾁ,ｶﾁｰﾌN錠5mg
ｶﾃ3,ｶﾃﾞｭｴｯﾄ配合錠3番★
ｶﾃﾕ,ｶﾃﾞﾕｴｯﾄ配合錠4番
ｶﾃﾕ2,ｶﾁﾞｭｴｯﾄ配合錠2番★
ｶﾅｸﾞ,ｶﾅｸﾞﾙ錠100mg
ｶﾅﾄ,ｶﾞﾅﾄﾝ錠50mg
ｶﾅﾏ,ｶﾅﾏｲｼﾝｶﾌﾟｾﾙ250㎎「明治」
ｶﾊｻ,ｶﾊﾞｻｰﾙ錠1mg
ｶﾊﾍ,ｶﾞﾊﾞﾍﾟﾝ錠300㎎
ｶﾊﾍ200,ｶﾞﾊﾞﾍﾟﾝ錠200mg
ｶﾌｺﾃﾞ,ｶﾌｺﾃﾞＮ配合錠
ｶﾌﾄR18,ｶﾌﾟﾄﾘﾙR18.75mg
ｶﾌﾄﾘﾙ,ｶﾌﾟﾄﾘﾙ錠12.5㎎★
ｶﾑ,ｶｰﾑﾀﾞﾝ錠0.4mg
ｶﾑｼｱ,ｶﾑｼｱ配合錠HD
ｶﾓｽ,ｶﾓｽﾃｰﾄ錠100mg
ｶﾓｽﾀ,ｶﾓｽﾀｯﾄﾒｼﾙ酸塩錠100mg「ﾄｰﾜ」
ｶﾘｸ,ｶﾘｸﾚｲﾝ10
ｶﾙ,ｶﾙﾍﾞｼﾞﾛｰﾙ2.5mg「ﾄｰﾜ」
ｶﾙｼ0.5,ｶﾙｼﾀﾐﾝ0.5
ｶﾙｽ10,ｶﾙｽﾛｯﾄ錠10mg
ｶﾙﾀ500,ｶﾙﾀﾝ錠500
ｶﾙﾀOD,ｶﾙﾀﾝOD錠500mg
ｶﾙﾃﾞ1,ｶﾙﾃﾞﾅﾘﾝ 1mg錠
ｶﾙﾃ2,ｶﾙﾃﾞﾅﾘﾝ錠2mg
ｶﾙﾃOD,ｶﾙﾃﾞﾅﾘﾝOD錠1mg★
ｶﾙﾅ25,ｶﾙﾅｸﾘﾝ錠25mg★
ｶﾙﾅ50,ｶﾙﾅｸﾘﾝ錠50
ｶﾙﾊﾞ,ｶﾙﾊﾞｿﾞｸﾛﾑｽﾙﾎﾝ酸Na錠30ｍｇ
ｶﾙﾋ,ｶﾙﾋﾞｽｹﾝ5㎎
ｶﾙﾌ0.25,ｶﾙﾌｨｰﾅ錠0.25mg
ｶﾙﾌ0.5,ｶﾙﾌｨｰﾅ錠0.5μｇ★
ｶﾙﾌ1,"ｶﾙﾌｨｰﾅ錠1,0"
ｶﾙﾌ16,ｶﾙﾌﾞﾛｯｸ錠16mg
ｶﾙﾌ8,ｶﾙﾌﾞﾛｯｸ錠8mg★
ｶﾙﾍ,ｶﾙﾍﾞｼﾞﾛｰﾙ錠2.5mgｻﾜｲ
ｶﾙﾍﾞ,ｶﾙﾍﾞｼﾞﾛｰﾙ錠10mg「ﾄｰﾜ」
ｶﾙﾍﾞ1.25,ｶﾙﾍﾞｼﾞﾛｰﾙ錠1.25「ﾄｰﾜ」
ｶﾙﾍ2,ｶﾙﾍﾞｼﾞﾛｰﾙ2.5
ｶﾙﾍﾞ2,ｶﾙﾍﾞｼﾞﾛｰﾙ錠10mg「ｻﾜｲ」
ｶﾙﾎ,ｶﾙﾎﾞｼｽﾃｲﾝ錠500mgｻﾜｲ
ｶﾙﾎﾞ250,ｶﾙﾎﾞｼｽﾃｲﾝ錠250「ﾄｰﾜ」
ｶﾛﾅ,ｶﾛﾅｰﾙ錠300㎎★
ｶﾛﾅ200,ｶﾛﾅｰﾙ錠200
ｶﾛﾅ5,ｶﾛﾅｰﾙ500mg★
ｶﾝ60,ｶﾝﾌｧﾀﾆﾝ錠60mg
ｶﾝﾃ,ｶﾝﾃﾞｻﾙﾀﾝ錠8mgあすか
ｶﾝﾃﾞ,ｶﾝﾃﾞｻﾙﾀﾝ12mg「ﾄｰﾜ」
ｶﾝﾃ4,ｶﾝﾃﾞｻﾙﾀﾝ錠4mgｱﾒﾙ
ｶﾝﾃﾞ4,ｶﾝﾃﾞｻﾙﾀﾝ4mg「ﾄｰﾜ」
ｶﾝﾃ8,ｶﾝﾃﾞｻﾙﾀﾝ錠8mgあすか
ｶﾝﾃﾞｻ,ｶﾝﾃﾞｻﾙﾀﾝOD2mg「ﾄｰﾜ」
ｶﾝﾃﾞｻﾙ,ｶﾝﾃﾞｻﾙﾀﾝ8mg「ﾄｰﾜ」
ｷﾈﾀ5,ｷﾈﾀﾞｯｸ 50mg
ｷﾌﾚ,ｷﾌﾟﾚｽ錠10mg
ｷﾔﾍ,ｷｬﾍﾞｼﾞﾝUｺｰﾜ錠25mg
ｸｳﾎ,空包
ｸｴ,ｸｴﾁｱﾋﾟﾝ25㎎明治
ｸｴﾁ,ｸｴﾁｱﾋﾟﾝ25mg「ﾄｰﾜ」
ｸｴﾁ100,ｸｴﾁｱﾋﾟﾝ100mg明治
ｸｴﾁ12.5,ｸｴﾁｱﾋﾟﾝ12.5明治★
ｸｴﾁ50,ｸｴﾁｱﾋﾟﾝ50明治★
ｸｴﾝ,ｸｴﾝ酸第一鉄Na錠50mgサワイ
ｸﾞｯﾄﾞ,ｸﾞｯﾄﾞﾐﾝ0.25mg
ｸﾗ,ｸﾗﾘｼｯﾄﾞ錠50㎎
ｸﾗ200,★ｸﾗﾘｽﾛﾏｲｼﾝ錠200㎎★
ｸﾗｸ,ｸﾞﾗｸﾃｨﾌﾞ錠50㎎
ｸﾗｸ100,ｸﾞﾗｸﾃｨﾌﾞ錠100mg★
ｸﾗｸ2,ｸﾞﾗｸﾃｨﾌﾞ錠25mg★
ｸﾗｹ15,ｸﾞﾗｹｰｶﾌﾟｾﾙ15mg
ｸﾗﾋ,ｸﾗﾋﾞｯﾄ錠250㎎
ｸﾗﾋ5,ｸﾗﾋﾞｯﾄ錠500mg
ｸﾗﾏ25,ｸﾞﾗﾏﾘｰﾙ錠25mg
ｸﾗﾏ50,ｸﾞﾗﾏﾘｰﾙ錠50mg
ｸﾗﾘ,ｸﾗﾘｼｯﾄﾞ錠 200mg
ｸﾗﾘ200,ｸﾗﾘｽ錠200
ｸﾗﾘｽﾛ,ｸﾗﾘｽﾛﾏｲｼﾝ200mg
ｸﾗﾘﾁ,ｸﾗﾘﾁﾝ錠10mg
ｸﾗﾙ100,ｸﾗﾙｰﾄRｶﾌﾟｾﾙ100mg
ｸﾗﾝ,ｸﾞﾗﾝﾀﾞｷｼﾝ錠 50mg
ｸﾘHA20,ｸﾞﾘﾐｸﾛﾝHA錠20mg
ｸﾘｱ200,ｸﾘｱﾅｰﾙ錠200mg
ｸﾘｱA,ｸﾘｱﾐﾝ配合錠A1.0
ｸﾘｺ,ｸﾞﾘｺﾗﾝ錠250㎎
ｸﾘﾁ,ｸﾞﾘﾁﾛﾝ
ｸﾘﾍ100,ｸﾞﾘﾍﾞｯｸ錠100mg
ｸﾘﾐ40,ｸﾞﾘﾐｸﾛﾝ錠 40mg
ｸﾞﾘﾐ40,ｸﾞﾘﾐｸﾛﾝ錠40mg
ｸﾘﾐｴ,ｸﾞﾘﾐｸﾛﾝHA20mg
ｸﾘﾒ,ｸﾞﾘﾒﾋﾟﾘﾄﾞ錠１mgEMEC
ｸﾘﾒ0.5,ｸﾞﾘﾒﾋﾟﾘﾄﾞ錠0.5mgＮＰ
ｸﾙｺ,ｸﾞﾙｺﾝｻﾝK錠５ｍｇ
ｸﾙｺ100,ｸﾞﾙｺﾊﾞｲ錠100㎎
ｸﾙｺ50,ｸﾞﾙｺﾊﾞｲ錠50mg★
ｸﾙｺOD50,ｸﾞﾙｺﾊﾞｲOD錠50mg
ｸﾙﾀ,ｸﾞﾙﾀﾁｵﾝ錠100mg
ｸﾙﾌ,ｸﾞﾙﾌｧｽﾄ 10mg
ｸﾙﾍ,ｸﾞﾙﾍﾞｽ配合錠
ｸﾚｽ,ｸﾞﾚｰｽﾋﾞｯﾄ錠50mg
ｸﾚｽ2.5,ｸﾚｽﾄｰﾙ錠2.5mg
ｸﾚｽ5,ｸﾚｽﾄｰﾙ錠5mg
ｸﾚｽOD,ｸﾚｽﾄｰﾙOD2.5mg
ｸﾚﾒ200,ｸﾚﾒｼﾞﾝｶﾌﾟｾﾙ200
ｸﾛﾁ,ｸﾛﾁｱｾﾞﾊﾟﾑ錠5mg「日医工」
ｸﾛﾋ,ｸﾛﾋﾟﾄﾞｸﾞﾚﾙ錠75mg明治
ｸﾛﾋﾟ,ｸﾛﾋﾟﾄﾞｸﾞﾚﾙ錠25mg「ﾄｰﾜ」
ｸﾛﾋﾟﾄﾞ,ｸﾛﾋﾟﾄﾞｸﾞﾚﾙ75mg「ﾄｰﾜ」
ｸﾛﾌ,ｸﾛﾌｪﾄﾞﾘﾝ錠
ｸﾛﾙ,ｸﾛﾙﾏｼﾞﾉﾝ酢酸ｴｽﾃﾙ錠25mg
ｹｰｻ,ｹｰｻﾌﾟﾗｲ錠600mg
ｹﾀｽ10,ｹﾀｽｶﾌﾟｾﾙ10mg
ｹﾌｱ,ｹﾞﾌｧﾆｰﾙｶﾌﾟｾﾙ50mg
ｹﾌﾗ,ｹﾌﾗｰﾙｶﾌﾟｾﾙ250mg
ｹﾙﾛ,ｹﾙﾛﾝｸﾞ錠10mg
ｺｰﾄ,ｺｰﾄﾘﾙ錠10mg
ｺｶﾙ200,ｺｶｰﾙ錠200mg
ｺｸﾐ100,ｺﾞｸﾐｼﾝ錠100
ｺｽﾊ,ｺｽﾊﾟﾉﾝ錠80mg
ｺｽﾊ40,ｺｽﾊﾟﾉﾝｶﾌﾟｾﾙ40mg
ｺﾃﾞ,ｺﾃﾞｲﾝﾘﾝ酸塩錠5mg「ｼｵｴ」
ｺﾃｲ,ｺﾃﾞｨｵ配合錠EX
ｺﾃｲMD,ｺﾃﾞｨｵ配合錠ＭＤ★
ｺﾄﾘ,ｺｰﾄﾘﾙ錠10㎎
ｺﾅﾝ10,ｺﾅﾝ錠10mg
ｺﾆ8,ｺﾆｰﾙ錠8mg★
ｺﾆﾙ2,ｺﾆｰﾙ 2mg
ｺﾆﾙ4,ｺﾆｰﾙ錠4mg
ｺﾊｼ,ｺﾊﾞｼﾙ2㎎
ｺﾊｼ4,ｺﾊﾞｼﾙ4mg
ｺﾑﾀﾝ,ｺﾑﾀﾝ錠100mg
ｺﾒﾘ100,ｺﾒﾘｱﾝｺｰﾜ錠100mg★
ｺﾒﾘ50,ｺﾒﾘｱﾝｺｰﾜ錠50
ｺﾘﾈ,×ｺﾘﾈｰﾙL錠20㎎★
ｺﾘﾈ10,×ｺﾘﾈｰﾙL錠10mg
ｺﾙﾋ,ｺﾙﾋﾁﾝ錠0.5mg
ｺﾚﾊ,ｺﾚﾊﾞｲﾝ錠500mg
ｺﾛﾅ,ｺﾛﾅﾓｰﾙ錠25㎎
ｺﾛﾈﾙ,ｺﾛﾈﾙ錠500㎎
ｺﾝｽ0.4,ｺﾝｽﾀﾝ0.4mg錠
ｺﾝﾄ,ｺﾝﾄｰﾙ錠10mg
ｺﾝﾄ12.,ｺﾝﾄﾐﾝ糖衣錠12.5mg
ｺﾝﾄ25,ｺﾝﾄﾐﾝ糖衣錠 25mg
ｺﾝﾄ5,ｺﾝﾄｰﾙ5mg
ｺﾝﾌ,ｺﾝﾌﾟﾗﾋﾞﾝ配合錠
ｻｱﾐ5,ｻｱﾐｵﾝ錠5mg
ｻｲ,ｻｲﾚｰｽ1
ｻｲ100,ｻﾞｲﾛﾘｯｸ錠100mg
ｻｲｻﾙ,ｻﾞｲｻﾞﾙ錠5㎎
ｻｲﾄ100,ｻｲﾄﾃｯｸ錠100mg
ｻｲﾄ200,ｻｲﾄﾃｯｸ錠200mg
ｻｲﾚ1,ｻｲﾚｰｽ1mg
ｻｲﾛ100,ｻﾞｲﾛﾘｯｸ錠100mg
ｻｲﾛ50,ｻﾞｲﾛﾘｯｸ錠50mg
ｻｲﾝ,ｻｲﾝﾊﾞﾙﾀｶﾌﾟｾﾙ20㎎
ｻｲﾝ30,ｻｲﾝﾊﾞﾙﾀｶﾌﾟｾﾙ30mg★
ｻｶﾈ,ｻｰｶﾈｯﾃﾝ配合錠
ｻｸﾗ,ｻﾞｸﾗｽ配合錠HD
ｻｸﾗL,ザクラスＬＤ
ｻｼﾃ,ｻﾞｼﾞﾃﾝ1mg
ｻﾑｽ,ｻﾑｽｶ錠15mg
ｻﾑｽ75,ｻﾑｽｶ錠7.5mg★
ｻﾗｼﾞｪ,ｻﾗｼﾞｪﾝ錠5mg
ｻﾗｿﾞ,ｻﾗｿﾞｽﾙﾌｧﾋﾟﾘｼﾞﾝ腸溶錠250mg「日医工」
ｻﾗｿ500,ｻﾗｿﾞﾋﾟﾘﾝ錠500mg
ｻﾙﾎﾟ,ｻﾙﾎﾟｸﾞﾚﾗｰﾄ塩酸塩錠100mg「ﾀｶﾀ」
ｻﾙﾓ,×ｻﾙﾓｼﾝ錠
ｻﾜｼ,ｻﾜｼﾘﾝｶﾌﾟｾﾙ250mg
ｻﾜｼ250,ｻﾜｼﾘﾝ錠250㎎
ｻﾜﾁ,×ｻﾜﾁｵﾝ錠5mg
ｻﾝｶ,酸化ﾏｸﾞﾈｼｳﾑ錠200mg
ｻﾝｶ250,酸化ﾏｸﾞﾈｼｳﾑ錠250㎎
ｻﾝｶ330,酸化ﾏｸﾞﾈｼｳﾑ錠330㎎
ｻﾝｶ500,酸化ﾏｸﾞﾈｼｳﾑ錠500mg
ｻﾝﾀ150,ｻﾞﾝﾀｯｸ錠150
ｻﾝﾀ75,ｻﾞﾝﾀｯｸ錠75mg★
ｻﾝﾘ,ｻﾝﾘｽﾞﾑｶﾌﾟｾﾙ50mg
ｻﾝﾘ25,ｻﾝﾘｽﾞﾑｶﾌﾟｾﾙ25mg★
ｼｱｾ2,ｼﾞｱｾﾞﾊﾟﾑ錠2mgｱﾒﾙ
ｼｱﾇ5,ｼﾞｬﾇﾋﾞｱ錠 50mg
ｼﾞｱﾉ,ｼﾞｱﾉｲﾅﾐﾝ錠10mg
ｼｰｻｰﾙ,ｼｰｻｰﾙ15mg
ｼｴｲ25,★ｼﾞｪｲｿﾞﾛﾌﾄ錠25㎎★
ｼｴｲ50,ｼﾞｪｲｿﾞﾛﾌﾄ錠50mg
ｼｴｲOD,ｼﾞｪｲｿﾞﾛﾌﾄOD25mg★
ｼｴﾆ,ｼﾞｪﾆﾅｯｸ錠200mg
ｼｷﾄ01,"ｼﾞｷﾞﾄｷｼﾝ錠0,1mg"
ｼｸﾏ2,ｼｸﾞﾏｰﾄ錠 2.5mg
ｼｸﾏ5,ｼｸﾞﾏｰﾄ錠5mg
ｼｸﾏB25,ｼｸﾞﾏﾋﾞﾀﾝｶﾌﾟｾﾙB25
ｼｺ0.12,ｼﾞｺﾞｷｼﾝ錠0.125錠(ﾀｲﾖｰ)
ｼｺ0.25,ｼﾞｺｷｼﾝ錠0.25mg(ﾀｲﾖｰ)
ｼｺｷKY,ｼﾞｺﾞｷｼﾝKY錠0.25㎎★
ｼﾞｺﾞｼ,ｼﾞｺﾞｼﾝ錠0.25mg
ｼｺｼ01,ｼﾞｺﾞｼﾝ錠0.125mg
ｼｺｼ02,ｼﾞｺﾞｼﾝ錠 0.25mg
ｼｽﾁ,ｼﾞｽﾁｸﾞﾐﾝ臭化物ﾃﾊﾞ
ｼｽﾛ,ｼﾞｽﾛﾏｯｸ錠250mg
ｼﾅﾙ,ｼﾅｰﾙ配合錠
ｼﾋﾃ,ｼﾞﾋﾃﾞﾙｺﾞｯﾄ錠1㎎
ｼﾌｴ,ｼﾞﾌｪﾆﾄﾞｰﾙ塩酸塩錠25mgTYK
ｼﾌﾚ,ｼﾞﾌﾟﾚｷｻ錠5mg
ｼﾌﾚ2.5,ｼﾞﾌﾟﾚｷｻ錠2.5㎎
ｼﾌﾚｻ,ｼﾞﾌﾟﾚｷｻ 10mg
ｼﾌﾛ,ｼﾌﾟﾛﾌﾛｷｻｼﾝ錠200mg
ｼﾌﾛ200,ｼﾌﾟﾛｷｻﾝ錠200mg
ｼﾍﾄ,ｼﾞﾍﾞﾄｽ錠50㎎
ｼﾍﾞﾉ,ｼﾍﾞﾉｰﾙ錠100mg
ｼﾍﾉ5,ｼﾍﾞﾉｰﾙ錠 50mg
ｼﾒﾁ200,ｼﾒﾁｼﾞﾝ錠200㎎ﾄｰﾜ
ｼﾔ50,ジァヤヌビア５０
ｼﾔﾇ100,ｼﾞｬﾇﾋﾞｱ錠100mg
ｼﾔﾇ25,ｼﾞｬﾇﾋﾞｱ25㎎★
ｼｭ0.5,ｼｭｱﾎﾟｽﾄ 0.5mg
ｼｭｱ,ｼｭｱﾎﾟｽﾄ0.25mg
ｼﾖｻ20,硝酸ｲｿｿﾙﾋﾞﾄﾞ徐放剤20㎎
ｼﾙｼﾞ,ｼﾙｼﾞﾆﾋﾟﾝ錠　5mg
ｼﾞﾙﾁ,ｼﾞﾙﾁｱｾﾞﾑ塩酸塩錠30mg
ｼﾙﾃ10,ｼﾞﾙﾃｯｸ錠10mg
ｼﾙﾃ5,ｼﾞﾙﾃｯｸ錠 5mg
ｼﾙﾆ,ｼﾙﾆｼﾞﾋﾟﾝ10mg｢ｻﾜｲ｣
ｼﾛｽ,ｼﾛｽﾀｿﾞｰﾙ錠50㎎
ｼﾛｽ100,ｼﾛｽﾀｿﾞｰﾙOD100沢井
ｼﾛｽOD,ｼﾛｽﾀｿﾞｰﾙOD錠50mg沢井
ｼﾛｽﾀ,ｼﾛｽﾀｿﾞｰﾙ錠OD50mg「ﾄｰﾜ」
ｼﾛｽﾀｿﾞ,ｼﾛｽﾀｿﾞｰﾙOD100mg「ﾄｰﾜ」
ｼﾛｽﾀﾄ,ｼﾛｽﾀｿﾞｰﾙOD100mg「ﾄｰﾜ」
ｼﾝｸ10,ｼﾝｸﾞﾚｱ錠10mg
ｼﾝﾒ100,ｼﾝﾒﾄﾚﾙ錠100mg★
ｼﾝﾒ50,ｼﾝﾒﾄﾚﾙ錠50mg
ｼﾝﾗ,ｼﾝﾗｯｸ錠2.5
ｽｲﾆ,ｽｲﾆｰ錠100mg
ｽｰｸﾞﾗ,ｽｰｸﾞﾗ錠50mg
ｽｰｸﾞﾗ25,ｽｰｸﾞﾗ25mg
ｽｵ,ｽｵｰﾄﾞ錠100mg
ｽﾀｼ,ｽﾀｰｼｽ錠90mg
ｽﾀﾚ,ｽﾀﾚﾎﾞ配合錠L100
ｽﾀﾚﾎﾞ,ｽﾀﾚﾎﾞ配合錠
ｽﾃﾌ,ｽﾃｰﾌﾞﾗOD錠0.1mg
ｽﾃﾌ0.1,ｽﾃｰﾌﾞﾗ錠0.1mg
ｽﾄｶ10,ｽﾄｶﾞｰ錠10mg
ｽﾋﾛ,ｽﾋﾟﾛﾍﾟﾝﾄ錠
ｽﾋﾟﾛ25,ｽﾋﾟﾛﾉﾗｸﾄﾝ錠25mg「ﾃﾊﾞ」
ｽﾌﾚ25,"ｽﾌﾟﾚﾝｼﾞｰﾙ2,5mg"
ｽﾌﾚ5,ｽﾌﾟﾚﾝｼﾞｰﾙ錠5mg
ｽﾙｶ,ｽﾙｶﾞﾑ錠200㎎
ｽﾙﾋ50,ｽﾙﾋﾟﾘﾄﾞ錠50mgｱﾒﾙ
ｽﾛｹ600,ｽﾛｰｹｰ 600mg
ｽﾛﾊ10,×ｽﾛｰﾊｲﾑ錠10㎎
ｾｲﾌ,ｾｲﾌﾞﾙ錠25mg
ｾｲﾌ50,ｾｲﾌﾞﾙ錠50mg
ｾﾞｽﾗ,ｾﾞｽﾗﾝ錠3mg
ｾﾀﾌ25,ｾﾀﾌﾟﾘﾙ錠25mg
ｾﾁｱ,ｾﾞﾁｰｱ錠10mg
ｾﾁﾘ,ｾﾁﾘｼﾞﾝ塩酸塩錠10㎎
ｾﾁﾛ,ｾﾁﾛ配合錠
ｾﾃｲ10,ｾﾃﾞｨｰﾙ錠10mg
ｾﾃｲ2,ｾﾃﾞｨｰﾙ錠20mg★
ｾﾃｲ5,ｾﾃﾞｨｰﾙ錠5㎎★
ｾﾊｿ1,ｾﾊﾟｿﾞﾝ錠1
ｾﾊｿ2,ｾﾊﾟｿﾞﾝ錠2㎎★
ｾﾊﾐ10,ｾﾊﾟﾐｯﾄRｶﾌﾟｾﾙ10
ｾﾌｱ25,ｾﾌｧﾄﾞｰﾙ錠25
ｾﾌｶ,ｾﾌｶﾍﾟﾝﾋﾟﾎﾞｷｼﾙ100mg「ｻﾜｲ」
ｾﾌｿ100,ｾﾌｿﾞﾝｶﾌﾟｾﾙ100mg
ｾﾌﾀ,ｾﾌﾀｯｸｶﾌﾟｾﾙ50mg
ｾﾗﾗ,ｾﾗﾗ錠50㎎
ｾﾗﾗ100,セララ錠１００ｍｇ
ｾﾗﾗ25,ｾﾗﾗ錠25㎎
ｾﾙｼ02,ｾﾙｼﾝ錠2mg
ｾﾙｼ5,ｾﾙｼﾝ錠 5mg
ｾﾙﾃ30,ｾﾙﾃｸﾄ錠30mg
ｾﾙﾃ50,ｾﾙﾃﾌﾟﾉﾝｶﾌﾟｾﾙ50mgﾃﾊﾞ
ｾﾙﾆ,ｾﾙﾆﾙﾄﾝ錠
ｾﾙﾍ50,ｾﾙﾍﾞｯｸｽｶﾌﾟｾﾙ50mg
ｾﾚｷ1,ｾﾚｷﾉﾝ錠 100mg
ｾﾚｸﾄ,ｾﾚｸﾄｰﾙ錠200㎎
ｾﾚｺ,ｾﾚｺｯｸｽ錠100㎎
ｾﾚｺ200,ｾﾚｺｯｸｽ錠200㎎★
ｾﾚｼO5,ｾﾚｼﾞｽﾄOD錠 5mg
ｾﾚｽ,ｾﾚｽﾀﾐﾝ
ｾﾚﾅ,ｾﾚﾅｰﾙ錠10㎎
ｾﾚﾅﾐ,ｾﾚﾅﾐﾝ錠5mg★
ｾﾚﾈ,ｾﾚﾈｰｽ1
ｾﾚﾈ1.5,ｾﾚﾈｰｽ錠1.5mg
ｾﾚﾈｽ,ｾﾚﾈｰｽ0.75
ｾﾛｸ10,ｾﾛｸｴﾙ 100mg
ｾﾛｸ20,ｾﾛｸﾗｰﾙ錠20mg
ｾﾛｸ200,ｾﾛｸｴﾙ錠200mg★
ｾﾛｸ25,ｾﾛｸｴﾙ25mg錠
ｾﾛｸﾗ10,ｾﾛｸﾗｰﾙ錠10㎎★
ｾﾛｹ20,ｾﾛｹﾝ錠20mg
ｾﾛｹL12,ｾﾛｹﾝL錠120mg
ｾﾛﾀ,ｾﾞﾛｰﾀﾞ錠300
ｾﾝ,ｾﾝﾉｼﾄﾞ12ﾀｲﾖｰ
ｾﾝｱ100,ｾﾞﾝｱｽﾋﾟﾘﾝ錠100
ｾﾝﾅ,ｾﾝﾅﾙ錠
ｾﾝﾅ12,ｾﾝﾅﾘﾄﾞ錠12㎎
ｾﾝﾉ,ｾﾝﾉｼﾄﾞ錠「ﾄｰﾜ」
ｾﾝﾉ12,ｾﾝﾉｻｲﾄﾞ錠(大正)12mg
ｾﾝﾉｻ,ｾﾝﾉｻｲﾄﾞ「ｻﾜｲ」12mg
ｾﾝﾉｼ,ｾﾝﾉｼﾄﾞ錠12mg「ｻﾜｲ」
ｿﾞﾋﾟ,ｿﾞﾋﾟｸﾛﾝ7.5mg「ﾄｰﾜ」
ｿﾋｸ,ｿﾞﾋﾟｸﾛﾝ錠10mgｱﾒﾙ
ｿﾋｸ7.5,×ｿﾞﾋﾟｸｰﾙ錠7.5mg
ｿﾋｸ沢井,ｿﾞﾋﾟｸﾛﾝ錠7.5mg沢井
ｿﾗﾅ0.8,ｿﾗﾅｯｸｽ錠0.8mg★
ｿﾗﾅ04,ｿﾗﾅｯｸｽ錠0.4mg
ｿﾗﾝ,ｿﾗﾝﾀｰﾙ錠100㎎
ｿﾙﾋ,ｿﾞﾙﾋﾟﾃﾞﾑOD錠5mgEE
ｿﾙﾋ1,ｿﾞﾙﾋﾟﾃﾞﾑOD10mgEE★
ｿﾙﾋﾃ,ゾルピデム５ｍｇ日医工
ｿﾞﾙﾋﾟﾃﾞ,ｿﾞﾙﾋﾟﾃﾞﾑ酒石酸塩錠10mg「ﾄｰﾜ」
ｿﾞﾙﾋﾟﾃﾞﾑ,ｿﾞﾙﾋﾟﾃﾞﾑ酒石酸塩錠5mg「ﾄｰﾜ」
ｿﾚﾄ80,ｿﾚﾄﾝ錠80
ｿﾚﾝ,ｿﾚﾝﾄﾐﾝ錠
ｿﾛﾝ,ｿﾛﾝ錠50mg
ﾀｲｱ250,ﾀﾞｲｱﾓｯｸｽ錠250
ﾀｲｱ30,ﾀﾞｲｱｰﾄ錠30mg
ﾀｲｱ60,ﾀﾞｲｱｰﾄ錠60mg
ﾀｲｸ25,ﾀﾞｲｸﾛﾄﾗｲﾄﾞ錠25mg
ﾀｲﾀ,ﾀﾞｲﾀﾘｯｸ錠60mg
ﾀﾞｲﾌ,ﾀﾞｲﾌｪﾝ配合錠
ﾀﾞｲﾒ,ﾀﾞｲﾒｼﾞﾝｽﾘｰﾋﾞｰ配合ｶﾌﾟｾﾙ25
ﾀｶﾒ200,ﾀｶﾞﾒｯﾄ錠200mg
ﾀｸﾛ0.5,タクロリムス０．５ｍｇ
ﾀｹ10,ﾀｹｷｬﾌﾞ錠10mg
ﾀｹｷ,ﾀｹｷｬﾌﾞ錠20mg
ﾀｹﾌ15,ﾀｹﾌﾟﾛﾝｶﾌﾟｾﾙ15mg★
ﾀｹﾌ30,ﾀｹﾌﾟﾛﾝｶﾌﾟｾﾙ30mg★
ﾀｹﾌOD1,ﾀｹﾌﾟﾛﾝOD錠15mg
ﾀｹﾌOD3,ﾀｹﾌﾟﾛﾝOD錠30mg
ﾀｹﾙ,ﾀｹﾙﾀﾞ配合錠
ﾀｽｵ,ﾀｽｵﾐﾝ錠10mg★
ﾀｽﾓ,ﾀｽﾓﾘﾝ錠1㎎
ﾀｾﾝ1,ﾀﾞｰｾﾞﾝ錠 10mg
ﾀﾅﾄ,ﾀﾅﾄﾘﾙ5mg
ﾀﾅﾄ2.5,ﾀﾅﾄﾘﾙ錠2.5㎎★
ﾀﾌﾏ,ﾀﾌﾏｯｸEｶﾌﾟｾﾙ
ﾀﾍﾞｼﾞ,ﾀﾍﾞｼﾞｰﾙ錠1mg
ﾀﾐﾌ,ﾀﾐﾌﾙｶﾌﾟｾﾙ75㎎
ﾀﾑｽ,ﾀﾑｽﾛｼﾝ塩酸塩OD錠0.2mg
ﾀﾑｽ0.1,ﾀﾑｽﾛｼﾝOD錠0.1mg★沢井
ﾀﾘｵ10,ﾀﾘｵﾝ錠10
ﾀﾘｵ5,ﾀﾘｵﾝ錠 5mg
ﾀﾘｵOD,ﾀﾘｵﾝOD錠10㎎
ﾀﾝ,ﾀﾝﾄﾞｽﾋﾟﾛﾝｸｴﾝ酸10mg
ﾀﾝｶﾙ,炭カル
ﾀﾝｻﾝ,炭酸リチウム200ｍｇ｢アメル｣
ﾁｱﾄ,ﾁｱﾄﾝｶﾌﾟｾﾙ10mg
ﾁｱﾌ,ﾁｱﾌﾟﾘﾄﾞ錠25mg
ﾁｱﾌﾟ50,ﾁｱﾌﾟﾘﾄﾞ50mg「JG」
ﾁｱﾗ,ﾁｱﾗﾘｰﾄﾞ錠50mg
ﾁｱﾗ25,ﾁｱﾗﾘｰﾄﾞ錠25mg★
ﾁｵｽﾀｰ,ﾁｵｽﾀｰ10mg
ﾁｶｿ,ﾁｶﾞｿﾝｶﾌﾟｾﾙ10mg
ﾁｶﾌ,ﾁｰｶﾌﾟﾄ錠200mg
ﾁｻﾆ,ﾁｻﾞﾆｼﾞﾝ錠1mg日医工
ﾁﾖｺ,ﾁｮｺﾗA錠
ﾁﾗ12.5,チラージン１２．５
ﾁﾗ75,ﾁﾗｰﾁﾞﾝS75μg★
ﾁﾗｰﾁﾞ5,ﾁﾗｰﾁﾞﾝS錠50μg
ﾁﾗｼ25,ﾁﾗｰｼﾞﾝS錠25μg
ﾁﾝ250,沈降炭酸ｶﾙｼｳﾑ250mg★三和
ﾁﾝｺｳ,沈降炭酸カルシウム錠
ﾁﾝｺｳﾀﾝｻﾝ,沈降炭酸ｶﾙｼｳﾑ錠500mg三和
ﾂﾑﾗ107,ﾂﾑﾗ牛車腎気丸ｴｷｽ顆粒
ﾃｲｱ1,×ﾃﾞｨｰｱﾙﾌｧｶﾌﾟｾﾙ 1μmg
ﾃｲｵ160,ﾃﾞｨｵﾊﾞﾝ錠160㎎
ﾃｲｵ20,ﾃﾞｨｵﾊﾞﾝ錠 20mg
ﾃｲｵ40,ﾃﾞｨｵﾊﾞﾝ錠40mg
ﾃｲｵ80,ﾃﾞｨｵﾊﾞﾝ錠80mg
ﾃｲｵOD,ﾃﾞｨｵﾊﾞﾝOD錠80mg★
ﾃｵ,ﾃｵﾛﾝｸﾞ100
ﾃｵﾄ100,ﾃｵﾄﾞｰﾙ錠100mg
ﾃｵﾄ200,ﾃｵﾄﾞｰﾙ錠200mg
ﾃｵﾄ50,ﾃｵﾄﾞｰﾙ錠50mg★
ﾃｵﾌ,ﾃｵﾌｨﾘﾝ徐放錠100mg「ｻﾜｲ」
ﾃｵﾌﾘ,ﾃｵﾌｨﾘﾝ徐放錠100mg「ﾄｰﾜ」
ﾃｵﾛ2,ﾃｵﾛﾝｸﾞ錠200mg★
ﾃｶﾄ0.5,ﾃﾞｶﾄﾞﾛﾝ錠0.5㎎
ﾃｸﾚ100,ﾃｸﾞﾚﾄｰﾙ錠100mg
ﾃｸﾚ200,ﾃｸﾞﾚﾄｰﾙ錠200㎎
ﾃｻﾚ,ﾃﾞｻﾞﾚｯｸｽ5mg
ﾃｼﾌ01,ﾃｼﾌﾟｰﾙ錠1mg
ﾃｼﾚ,ﾃﾞｼﾞﾚﾙ錠50mg
ﾃｼﾚ25,ﾃﾞｼﾞﾚﾙ錠25mg★
ﾃﾞﾀﾝ,ﾃﾞﾀﾝﾄｰﾙR錠6mg
ﾃﾞﾀﾝ0.5,ﾃﾞﾀﾝﾄｰﾙ0.5mg
ﾃﾂｸ,ﾃﾂｸｰﾙ除放錠100mg
ﾃﾄﾗ10,ﾃﾄﾗﾐﾄﾞ錠10mg
ﾃﾄﾗ30,ﾃﾄﾗﾐﾄﾞ錠30mg★
ﾃﾄﾙ,ﾃﾞﾄﾙｼﾄｰﾙｶﾌﾟｾﾙ2mg
ﾃﾞﾄﾙ4,ﾃﾞﾄﾙｼﾄｰﾙｶﾌﾟｾﾙ4mg
ﾃﾈﾘ,ﾃﾈﾘｱ錠20mg
ﾃﾉﾐ25,ﾃﾉｰﾐﾝ25mg
ﾃﾉﾐ50,ﾃﾉｰﾐﾝ錠50
ﾃﾊｹ100,ﾃﾞﾊﾟｹﾝ錠100
ﾃﾊｹR,ﾃﾞﾊﾟｹﾝR錠200mg
ﾃﾊｹR10,ﾃﾞﾊﾟｹﾝR錠100mg★
ﾃﾊｽ0.25,ﾃﾞﾊﾟｽ錠0.25㎎★
ﾃﾊｽ05,"ﾃﾞﾊﾟｽ錠0,5mg"
ﾃﾊｽ1,ﾃﾞﾊﾟｽ錠1mg
ﾃﾌ,ﾃﾌﾟﾚﾉﾝｶﾌﾟｾﾙ50
ﾃﾌﾛ25,ﾃﾞﾌﾟﾛﾒｰﾙ錠25
ﾃﾌﾛ5,ﾃﾞﾌﾟﾛﾒｰﾙ錠 50mg
ﾃﾌﾛ75,ﾃﾞﾌﾟﾛﾒｰﾙ錠75mg★
ﾃﾑﾅ0.5,ﾃﾞﾑﾅｯﾄ錠0.5mg
ﾃﾙﾈ1,ﾃﾙﾈﾘﾝ錠1mg
ﾃﾙﾋ,ﾃﾙﾋﾞﾅﾌｨﾝ錠125㎎
ﾃﾙﾐ,ﾃﾙﾐｻﾙﾀﾝ20ﾄｰﾜ
ﾃﾙﾐｻ,ﾃﾙﾐｻﾙﾀﾝ20mg「DSEP」
ﾃﾙﾐｻﾙ,ﾃﾙﾐｻﾙﾀﾝ40mg「ﾄｰﾜ」
ﾃﾙﾛ,ﾃﾙﾛﾝ0.5
ﾄﾞｷｻ,ﾄﾞｷｻｿﾞｼﾝ錠2mg「ﾀﾅﾍﾞ」
ﾄﾞｷｻｿﾞ,ﾄﾞｷｻｿﾞｼﾝ1mg「ﾀﾅﾍﾞ」
ﾄｸﾏ,ﾄﾞｸﾞﾏﾁｰﾙ錠50mg
ﾄｸﾏ100,ﾄﾞｸﾞﾏﾁｰﾙ錠100㎎★
ﾄｺﾌ,ﾄｺﾌｪﾛｰﾙ錠50「ﾄｰﾜ」
ﾄｺﾌ100,ﾄｺﾌｪﾛｰﾙｶﾌﾟｾﾙ100mgNP
ﾄｺﾌ2,ﾄｺﾌｪﾛｰﾙｶﾌﾟｾﾙ200mgｻﾜｲ
ﾄﾈﾍ,ﾄﾞﾈﾍﾟｼﾞﾙOD錠5mg日医工
ﾄﾞﾈﾍﾟ,ﾄﾞﾈﾍﾟｼﾞﾙOD5mg「ﾄｰﾜ」
ﾄﾈﾍ5,ﾄﾞﾈﾍﾟｼﾞﾙ塩酸塩錠5mgTCK
ﾄﾈﾍOD10,ﾄﾞﾈﾍﾟｼﾞﾙOD錠10mg
ﾄﾈﾍOD3,ﾄﾞﾈﾍﾟｼﾞﾙOD錠3mg明治
ﾄﾈﾍ明治,ﾄﾞﾈﾍﾟｼﾞﾙOD錠5mg★明治
ﾄﾊｺ,ﾄﾞﾊﾟｺｰﾙ錠100mg
ﾄﾊｿ,ﾄﾞﾊﾟｿﾞｰﾙ錠200㎎
ﾄﾋｴ4,×ﾄﾋﾞｴｰｽ錠4mg
ﾄﾋﾟﾅ,ﾄﾋﾟﾅ50ｍｇ
ﾄﾌｽ1,ﾄﾞﾌﾟｽｶﾌﾟｾﾙ100mg
ﾄﾌｽ200,ﾄﾞﾌﾟｽｶﾌﾟｾﾙ200
ﾄﾌｽOD,ﾄﾞﾌﾟｽOD錠100mg
ﾄﾌﾗ1,ﾄﾌﾗﾆｰﾙ錠 10mg
ﾄﾌﾗ25,ﾄﾌﾗﾆｰﾙ錠25mg
ﾄﾐﾛﾝ,ﾄﾐﾛﾝ錠100㎎
ﾄﾗｾ,ﾄﾗｾﾞﾝﾀ錠5mg
ﾄﾗｿ,ﾄﾗｿﾞﾄﾞﾝ塩酸塩錠50mgｱﾒﾙ
ﾄﾗｿ2,ﾄﾗｿﾞﾄﾞﾝ塩酸塩錠25mgｱﾒﾙ★
ﾄﾗﾍﾙ,ﾄﾗﾍﾞﾙﾐﾝ錠
ﾄﾗﾏ,ﾄﾗﾏｰﾙｶﾌﾟｾﾙ25㎎
ﾄﾗﾏ25,ﾄﾗﾏｰﾙOD錠25mg
ﾄﾗﾑ,ﾄﾗﾑｾｯﾄ配合錠
ﾄﾗﾙ,ﾄﾞﾗｰﾙ錠20㎎
ﾄﾗﾙ1,ﾄﾞﾗｰﾙ錠 15mg
ﾄﾗﾝ,ﾄﾗﾝｺﾛﾝP配合錠
ﾄﾗﾝ25,ﾄﾗﾝｻﾐﾝ錠 250mg
ﾄﾗﾝ5,ﾄﾗﾝｻﾐﾝ錠500mg★
ﾄﾗﾝｺ,ﾄﾗﾝｺﾛﾝ7.5mg
ﾄﾗﾝｻ,ﾄﾗﾝｻﾐﾝｶﾌﾟｾﾙ250mg
ﾄﾘｱ,ﾄﾘｱｿﾞﾗﾑ錠0.25㎎CH
ﾄﾘｱ0.25,ﾄﾘｱｿﾞﾗﾑ錠0.25mg日医工
ﾄﾘｱｿ,ﾄﾘｱｿﾞﾗﾑ錠0.125mg★
ﾄﾘｸ1,ﾄﾘｸﾛﾙﾒﾁｱｼﾞﾄﾞ1mg
ﾄﾘｸﾛ,トリクロルメチアジド２ｍｇ
ﾄﾘﾌ10,ﾄﾘﾌﾟﾀﾉｰﾙ錠10㎎
ﾄﾘﾌﾟ25,ﾄﾘﾌﾟﾀﾉｰﾙ錠25mg
ﾄﾘﾍ,ﾄﾘﾍｷｼﾌｪﾆｼﾞﾙ2mg｢ｱﾒﾙ｣
ﾄﾘﾓ2,ﾄﾘﾓｰﾙ錠2mg
ﾄﾙﾅ,ﾄﾞﾙﾅｰ錠20μg
ﾄﾚﾄ15,ﾄﾚﾄﾞﾐﾝ錠15㎎
ﾄﾚﾄ25,ﾄﾚﾄﾞﾐﾝ錠25
ﾄﾚﾘ,ﾄﾚﾘｰﾌ錠25㎎
ﾄﾝﾍ,ﾄﾞﾝﾍﾟﾘﾄﾞﾝ錠10㎎
ﾄﾞﾝﾍﾟ,ﾄﾞﾝﾍﾟﾘﾄﾞﾝ10mg「ﾄｰﾜ」
ﾅｲｷ100,ﾅｲｷｻﾝ錠100mg
ﾅｳｾ10,ﾅｳｾﾞﾘﾝ錠10mg
ﾅｳｾ5,ﾅｳｾﾞﾘﾝ錠5mg
ﾅｳｾOD,ﾅｳｾﾞﾘﾝOD錠10㎎★
ﾅﾄﾘ,ﾅﾄﾘｯｸｽ錠2mg
ﾅﾄﾘ1,ﾅﾄﾘｯｸｽ錠1mg
ﾅﾌﾄ25,ナフトピジルDO２５ｍｇ
ﾆｺﾁ,ﾆｺﾁﾈｰﾄ100mg
ﾆｺﾗ,ﾆｺﾗﾝｼﾞｽ 5mg
ﾆｺﾗﾝﾏ,ﾆｺﾗﾝﾏｰﾄ錠5mg
ﾆｾﾙNP,ﾆｾﾙｺﾞﾘﾝ錠5mgNP
ﾆｾﾙSW,ﾆｾﾙｺﾞﾘﾝ錠5mg
ﾆﾁｽ100,ﾆﾁｽﾃｰﾄ錠100mg
ﾆﾄﾛ,ﾆﾄﾛﾍﾟﾝ
ﾆﾄﾛ5,ﾆﾄﾛｰﾙ錠5㎎
ﾆﾄﾛR,ﾆﾄﾛｰﾙRｶﾌﾟｾﾙ
ﾆﾊｼ2,ﾆﾊﾞｼﾞｰﾙ錠2mg★
ﾆﾊｼ4,ﾆﾊﾞｼﾞｰﾙ錠4㎎
ﾆﾌ2,ﾆﾌｪｼﾞﾋﾟﾝCR20mg「ﾄｰﾜ」
ﾆﾌｪ,ﾆﾌｪｼﾞﾋﾟﾝCR40mg「ﾄｰﾜ」
ﾆﾌｴ,ﾆﾌｪｼﾞﾋﾟﾝL錠10mg日医工
ﾆﾌｴ20,ﾆﾌｪｼﾞﾋﾟﾝL錠20mg★日医工
ﾆﾌｴ4,ﾆﾌｪｼﾞﾋﾟﾝCR錠40mgｻﾜｲ
ﾆﾌｪC,ニフェジピンCR２０ｍｇ日医工
ﾆﾌｴCR10,ﾆﾌｪｼﾞﾋﾟﾝCR錠10ｻﾜｲ
ﾆﾌｴCR20,ﾆﾌｪｼﾞﾋﾟﾝCR錠20沢井
ﾆﾌｪL10,ﾆﾌｪｼﾞﾋﾟﾝL10「ﾄｰﾜ」
ﾆﾌｴL10,ﾆﾌｪﾗｰﾄL錠10
ﾆﾌｴ沢井,ﾆﾌｪｼﾞﾋﾟﾝｶﾌﾟｾﾙ10mg沢井
ﾆﾎﾗ,ﾆﾎﾟﾗｼﾞﾝ錠
ﾆﾕ,ﾆｭｰﾚﾌﾟﾁﾙ5
ﾆｭｰ50,ﾆｭｰﾛﾀﾝ錠50mg×
ﾆﾕﾄ,ﾆｭｰﾄﾗｲﾄﾞ錠12.5mg
ﾆﾕﾚ10,ﾆｭｰﾚﾌﾟﾁﾙ錠10mg
ﾆﾕﾛ25,ﾆｭｰﾛﾀﾝ錠25mg
ﾆﾕﾛ50,ﾆｭｰﾛﾀﾝ錠50mg
ﾆﾕﾛﾀ50,ﾆｭｰﾛﾀﾝ50mg 0.5T
ﾈｵﾄ100,ﾈｵﾄﾞﾊﾟｽﾄﾝ錠100mg
ﾈｵﾄﾊｿ,ﾈｵﾄﾞﾊﾟｿﾞｰﾙ錠
ﾈｵﾏ6,ﾈｵﾏﾚﾙﾐﾝTR錠6mg
ﾈｷｼ,ﾈｷｼｳﾑｶﾌﾟｾﾙ20㎎
ﾈｷｼ10,ﾈｷｼｳﾑｶﾌﾟｾﾙ10㎎
ﾈｼﾅ,ﾈｼｰﾅ錠12.5㎎
ﾈｼﾅ25,ﾈｼｰﾅ錠25㎎
ﾈｼﾅ6,ﾈｼｰﾅ錠6.25㎎
ﾈﾄﾞﾘ,ﾈﾄﾞﾘｰﾙ錠125ｍｇ
ﾈﾙﾋ,ﾈﾙﾋﾞｽ錠250mg
ﾉｲｴ,ﾉｲｴﾙｶﾌﾟｾﾙ200mg
ﾉｲｷ10,ﾉｲｷﾉﾝ錠10mg
ﾉｲﾁ30,ﾉｲﾁｰﾑ錠30mg★
ﾉｲﾁ9,ﾉｲﾁｰﾑ錠 90mg
ﾉｲﾛ,ﾉｲﾛﾄﾛﾋﾟﾝ錠
ﾉｲﾛﾋ,★ﾉｲﾛﾋﾞﾀﾝ錠★
ﾉｳﾘ,ﾉｳﾘｱｽﾄ錠20mg
ﾉﾊﾐ,ﾉﾊﾞﾐﾝ錠5㎎
ﾉﾙﾊ10,ﾉﾙﾊﾞｽｸ錠10㎎★
ﾉﾙﾊﾞ25,ﾉﾙﾊﾞｽｸ錠2.5mg
ﾉﾙﾊﾞ5,ﾉﾙﾊﾞｽｸ錠5mg
ﾉﾙﾊO2,ﾉﾙﾊﾞｽｸOD錠 2.5mg
ﾉﾙﾊOD10,ﾉﾙﾊﾞｽｸOD錠10mg
ﾉﾙﾊOD5,ﾉﾙﾊﾞｽｸOD錠5㎎
ﾉﾙﾊﾃ20,ノルバデックス２０ｍｇ
ﾉﾙﾓ15,ﾉﾙﾓﾅｰﾙ錠15㎎
ﾊｲｱ100,ﾊﾞｲｱｽﾋﾟﾘﾝ錠100mg
ﾊｲｶ,ﾊﾞｲｶﾛﾝ錠25mg
ﾊｲﾄ,ﾊｲﾄﾞﾚｱｶﾌﾟｾﾙ500㎎
ﾊｲﾄ1,ﾊｲﾄﾗｼﾝ1mg
ﾊｲﾍ,ﾊｲﾍﾟﾝ錠100㎎
ﾊｲﾍ200,ﾊｲﾍﾟﾝ錠200mg
ﾊｲﾎﾞ20,ﾊｲﾎﾞﾝ20mg★
ﾊｲﾎﾝ,ﾊｲﾎﾞﾝ錠40mg
ﾊｲﾐ,ﾊﾞｲﾐｶｰﾄﾞ錠10㎎
ﾊｲﾛ1,ﾊﾞｲﾛﾃﾝｼﾝ錠10mg
ﾊｲﾛ5,ﾊﾞｲﾛﾃﾝｼﾝ錠5㎎
ﾊｷｼ10,ﾊﾟｷｼﾙ錠10mg
ﾊｷｼ20,ﾊﾟｷｼﾙ錠20mg
ﾊｷｼ5,ﾊﾟｷｼﾙ錠5㎎
ﾊｷｼCR,ﾊﾟｷｼﾙＣＲ錠25mg★
ﾊｷｼCR12.5,ﾊﾟｷｼﾙCR錠12.5★
ﾊｸﾀ,ﾊﾞｸﾞﾀ錠
ﾊｽﾀ,ﾊﾞｽﾀﾚﾙF錠3mg
ﾊﾁ,ﾊﾟﾁｭﾅ100
ﾊﾂﾌ,ﾊﾞｯﾌﾟﾌｫｰ錠20㎎
ﾊﾂﾌ10,ﾊﾞｯﾌﾟﾌｫｰ錠10mg
ﾊﾅ,ﾊﾟﾅﾋﾟｼﾞﾝ100
ﾊﾅﾙ,ﾊﾟﾅﾙｼﾞﾋﾟﾝ100
ﾊﾅﾙ100,ﾊﾟﾅﾙｼﾞﾝ錠100mg
ﾊﾅﾙN,ﾊﾞﾅｰﾙNｶﾌﾟｾﾙ100㎎
ﾊﾞﾅﾝ,ﾊﾞﾅﾝ100mg
ﾊﾌｱ330,ﾊﾞﾌｧﾘﾝ錠330mg
ﾊﾌｱ81,ﾊﾞﾌｧﾘﾝ81mg
ﾊﾌｼ,ﾊｰﾌｼﾞｺｷｼﾝKY錠0.125
ﾊﾞﾗｼ,ﾊﾞﾗｼｸﾛﾋﾞﾙ錠500ｍｇ「日医工」
ﾊﾘｴ10,ﾊﾟﾘｴｯﾄ錠10mg
ﾊﾘｴ20,ﾊﾟﾘｴｯﾄ錠20㎎
ﾊﾟﾘｴ5,ﾊﾟﾘｴｯﾄ錠５ｍｇ
ﾊﾙ,ﾊﾟﾙﾅｯｸｶﾌﾟｾﾙ0.2
ﾊﾞﾙ,ﾊﾞﾙｻﾙﾀﾝ20mg「明治」
ﾊﾞﾙｻ,ﾊﾞﾙｻﾙﾀﾝ80mg「ﾄｰﾜ」
ﾊﾙｻ80,ﾊﾞﾙｻﾙﾀﾝ錠80明治
ﾊﾞﾙｻﾙ,ﾊﾞﾙｻﾙﾀﾝ40mg
ﾊﾙｼ012,"ﾊﾙｼｵﾝ0,125mg錠"
ﾊﾙｼ025,ﾊﾙｼｵﾝ錠0.25mg
ﾊﾙｽ,ﾊﾙｽﾛｰOD錠0.2㎎★
ﾊﾙﾄ,ﾊﾞﾙﾄﾚｯｸｽ錠500mg
ﾊﾙﾅ0.1,ﾊﾙﾅｰﾙD錠0.1mg★
ﾊﾙﾅD02,ﾊﾙﾅｰﾙD錠0.2mg
ﾊﾙﾈ,ﾊﾞﾙﾈﾁｰﾙ錠100mg
ﾊﾙﾌ100,バルプロサンＳＲ１００ｍｇ
ﾊﾙﾌ200,ﾊﾞﾙﾌﾟﾛ酸NaSR200ｱﾒﾙ
ﾊﾞﾙﾌﾟﾛ,ﾊﾞﾙﾌﾟﾛ酸Na徐放B錠200mg「ﾄｰﾜ」
ﾊﾙﾗ025,ﾊﾙﾗｯｸ錠0､25mg
ﾊﾙﾚ,ﾊﾞﾙﾚｰﾙ錠10mg
ﾊﾚﾘ,ﾊﾞﾚﾘﾝ錠200mg
ﾊﾛｷ,ﾊﾟﾛｷｾﾁﾝ錠10mgAA
ﾊﾞﾛﾁ,ﾊﾞﾛﾁﾝ錠10mg
ﾊﾛﾃ,ﾊｰﾛﾃﾞﾙ2.5mg
ﾊﾛﾃ25,ﾊﾟｰﾛﾃﾞﾙ錠5mg
ﾊﾛﾍ0.25,ﾊﾛﾍﾟﾘﾄﾞｰﾙ錠0.75ｱﾒﾙ
ﾊﾛﾐ,ﾊﾛﾐﾄﾞｰﾙ錠0.75㎎
ﾊﾟﾝｽ,ﾊﾟﾝｽﾎﾟﾘﾝ
ﾊﾟﾝﾄ,パントシン錠100ｍｇ
ﾋﾞ・ｼﾌﾛｰﾙ0.5,ﾋﾞ・ｼﾌﾛｰﾙ0.5mg
ﾋｴｲ,PA錠
ﾋﾞｵOD,ﾋﾞｵｽﾘｰ配合OD錠
ﾋﾟｵｸﾞ,ﾋﾟｵｸﾞﾘﾀｿﾞﾝ錠15mg「ﾀｲﾖｰ」
ﾋｵｽ,ﾋﾞｵｽﾘｰ錠
ﾋｵﾌ,ﾋﾞｵﾌｪﾙﾐﾝ錠剤
ﾋｵﾌR,ﾋﾞｵﾌｪﾙﾐﾝR錠
ﾋｶﾙ,ﾋﾞｶﾙﾀﾐﾄﾞ錠80mg日医工
ﾋｺｽ2,ﾋﾟｺｽﾙﾌｧｰﾄNa錠2.5mg日医工★
ﾋｼﾌ012,ﾋﾞ・ｼﾌﾛｰﾙ0.125mg
ﾋｼﾌ05,ﾋﾞｼﾌﾛｰﾙ錠0.5mg
ﾋｾﾂ,ﾋﾟｰｾﾞｯﾄｼｰ糖衣錠2㎎
ﾋｿﾉ,ビソノテープ4ｍｇ
ﾋﾞｿﾌﾟ,ﾋﾞｿﾌﾟﾛﾛｰﾙﾌﾏﾙ酸塩錠2.5mg
ﾋｿﾌ0.625,ビソプロロール０．６２５
ﾋﾞｿﾌﾟﾛ,ﾋﾞｿﾌﾟﾛﾛｰﾙﾌﾏﾙ5mg
ﾋｿﾙ4,ﾋﾞｿﾙﾎﾞﾝ4mg
ﾋﾟﾀ,ﾋﾟﾀﾊﾞｽﾀﾁﾝCa錠OD2mg「ﾄｰﾜ」
ﾋﾀﾀﾝ,ﾋﾞﾀﾀﾞﾝ配合錠
ﾋﾀﾉ25,ﾋﾞﾀﾉｲﾘﾝｶﾌﾟｾﾙ25mg★
ﾋﾀﾉ50,ﾋﾞﾀﾉｲﾘﾝ50mg
ﾋﾀﾊ,ﾋﾟﾀﾊﾞｽﾀﾁﾝCa錠2mg明治
ﾋﾀﾊﾞ,ﾌﾟﾀﾊﾞｽﾀﾁﾝOD10mg「ﾄｰﾜ」
ﾋﾟﾀﾊﾞ,ﾋﾟﾀﾊﾞｽﾀﾁﾝｶﾙｼｳﾑ2mg「ﾄｰﾜ」
ﾋﾀﾊ1,ﾋﾟﾀﾊﾞｽﾀﾁﾝCa1明治★
ﾋﾀﾊO,ﾋﾟﾀﾊﾞｽﾀﾁﾝOD1mg
ﾋﾟﾀﾊﾞｽ,ﾋﾟﾀﾊﾞｽﾀﾁﾝCa錠2mg「ﾄｰﾜ」
ﾋﾀﾌ,ﾋﾞﾀﾌｧﾝﾄF錠25
ﾋﾞﾀﾐ,ﾋﾞﾀﾐﾝB6錠30mg「F」
ﾋﾞﾀﾒ,ﾋﾞﾀﾒｼﾞﾝ配合ｶﾌﾟｾﾙB50
ﾋﾀﾒ25,ﾋﾞﾀﾒｼﾞﾝｶﾌﾟｾﾙ25mg
ﾋﾃﾙ,ﾋﾃﾞﾙｷﾞﾝ錠2mg
ﾋﾄｷ10,ﾋﾟﾄﾞｷｻｰﾙ錠10mg
ﾋﾄｷ30,ﾋﾟﾄﾞｷｻｰﾙ錠20mg
ﾋﾋｱ,ﾋﾞﾋﾞｱﾝﾄ錠20㎎
ﾋﾋﾞﾀ,ﾋﾋﾞﾀﾝ
ﾋﾞﾍﾟﾘ,ﾋﾞﾍﾟﾘﾃﾞﾝ塩酸塩1mg「ｱﾒﾙ」
ﾋﾍﾙ,ﾋﾍﾞﾙﾅ糖衣錠25㎎
ﾋﾏｽ,ﾋﾞｰﾏｽ配合錠
ﾋﾓﾍ,ﾋﾟﾓﾍﾞﾝﾀﾞﾝ錠2.5㎎[ＴＥ]
ﾋﾞﾗﾉｱ,ﾋﾞﾗﾉｱ錠20mg
ﾋﾙｼ25,ﾋﾟﾙｼﾞｶｲﾆﾄﾞ25mg
ﾋﾙﾅ25,ﾋﾙﾅﾐﾝ25mg★
ﾋﾙﾅ5,ﾋﾙﾅﾐﾝ錠5mg
ﾋﾟﾚﾁ,ﾋﾟﾚﾁｱ錠25ｍｇ
ﾋﾚﾁ5,ﾋﾟﾚﾁｱ錠5mg
ﾋﾛﾗ2,ﾋﾟﾛﾗｸﾄﾝ錠25mg
ﾌｧｽ,ﾌｧｽﾃｨｯｸ30mg
ﾌｱｽ,ﾌｧｽﾃｨｯｸ錠90mg
ﾌｱﾑ,ﾌｧﾑﾋﾞﾙ錠250ｍｇ
ﾌｧﾓ,ﾌｧﾓﾁｼﾞﾝOD10mg「ﾄｰﾜ」
ﾌｱﾓ,ﾌｧﾓﾁｼﾞﾝOD20mg「ﾄｰﾜ」
ﾌｧﾓ10,ﾌｧﾓﾁｼﾞﾝ錠10㎎★ｻﾜｲ
ﾌｱﾓ20,ﾌｧﾓﾁｼﾞﾝ錠20ｻﾜｲ
ﾌｱﾓﾁD10,ﾌｧﾓﾁｼﾞﾝD錠10mg★ｻﾜｲ
ﾌｱﾓﾁD2,ﾌｧﾓﾁｼﾞﾝ錠D20mgｻﾜｲ
ﾌｱﾛ,ﾌｧﾛﾑ錠200mg
ﾌｴｷ,ﾌｪｷｿﾌｪﾅｼﾞﾝ錠60mgEE
ﾌｪｷｿ,ﾌｪｷｿﾌｪﾅｼﾞﾝ60mg「ﾄｰﾜ」
ﾌｴﾆ,×ﾌｪﾆﾚﾝ錠50mg
ﾌｪﾉ,ﾌｪﾉﾌｪﾌﾞﾗｰﾄ80mg「ﾃﾊﾞ」
ﾌｴﾉ,ﾌｴﾉﾊﾞｰﾙ錠 30mg
ﾌｴﾌ,ﾌｪﾌﾞﾘｸ錠20mg
ﾌｴﾌ10,ﾌｪﾌﾞﾘｸ錠10mg★
ﾌｪﾌﾞ40,ﾌｪﾌﾞﾘｸ40mg
ﾌｴﾙ,ﾌｪﾙﾑｶﾌﾟｾﾙ
ﾌｴﾚ,ﾌｪﾚﾀﾞｲﾑ錠
ﾌｪﾛ,×ﾌｪﾛﾁｰﾑ50mg沢井
ﾌｴﾛｸ,ﾌｪﾛｸﾞﾗﾃﾞｭﾒｯﾄ
ﾌｴﾛﾍ,ﾌｪﾛﾍﾞﾘﾝ配合錠
ﾌｴﾛﾐ,ﾌｪﾛﾐｱ錠50mg
ﾌｴﾝ,ﾌｪﾝﾗｰｾﾞ配合ｶﾌﾟｾﾙ
ﾌｵｲ,ﾌｵｲﾊﾟﾝ錠100㎎
ﾌｵｻ5,ﾌｫｻﾏｯｸ錠5mg
ﾌｵｼ5,フォシーガ５ｍｇ
ﾌｵｽ,ﾌｫｽﾌﾞﾛｯｸ錠250㎎
ﾌｵﾘ5,ﾌｫﾘｱﾐﾝ 5mg
ﾌｵﾙ12,ﾌｫﾙｾﾆｯﾄﾞ錠12㎎
ﾌｽｺ,ﾌｽｺﾃﾞ配合錠
ﾌｽｺ10,ﾌﾞｽｺﾊﾟﾝ錠10㎎
ﾌｽﾀ10,ﾌｽﾀｿﾞｰﾙ錠10mg
ﾌｿｺﾅ,ﾌｿｺﾅｿﾞｰﾙｶﾌﾟｾﾙ100mg
ﾌﾗｻ,ﾌﾟﾗｻﾞｷｻｶﾌﾟｾﾙ75mg
ﾌﾗﾀ,ﾌﾞﾗﾀﾞﾛﾝ錠
ﾌﾗﾊﾞ,ﾌﾟﾗﾊﾞｽﾀﾁﾝNa錠10mg「ﾄｰﾜ」
ﾌﾗﾊ10,ﾌﾟﾗﾊﾞｽﾀﾁﾝNA錠10㎎ｱﾒﾙ
ﾌﾗﾊ5,ﾌﾟﾗﾊﾟｽﾀﾁﾝNa錠5mg[ｱﾒﾙ]
ﾌﾟﾗﾊﾞｽ,ﾌﾟﾗﾊﾞｽﾀﾁﾝNa錠5mg「ﾄｰﾜ」
ﾌﾗﾊﾁﾝ,ﾌﾟﾗﾊﾞﾁﾝ錠10㎎★
ﾌﾗﾋ10,ﾌﾗﾋﾞﾀﾝ錠10mg
ﾌﾗﾋ2,ﾌﾟﾗﾋﾞｯｸｽ錠 25mg
ﾌﾗﾋ5,ﾌﾗﾋﾞﾀﾝ錠 5mg
ﾌﾗﾋ7,ﾌﾟﾗﾋﾞｯｸｽ錠 75mg
ﾌﾗﾍ,ﾌﾗﾍﾞﾘｯｸ錠20mg
ﾌﾗﾎ200,ﾌﾗﾎﾞｷｻｰﾄ錠200mg日医工
ﾌﾗﾎﾈ,×ﾌﾗﾎﾞﾈｰﾄ錠200㎎
ﾌﾟﾗﾝ,ﾌﾟﾗﾝﾙｶｽﾄ錠112.5mg
ﾌﾗﾝ20,ﾌﾗﾝﾄﾞﾙ錠20mg
ﾌﾟﾗﾝﾙ,ﾌﾟﾗﾝﾙｶｽﾄ錠225「EK」
ﾌﾘﾊ,ﾌﾘﾊﾞｽOD25㎎
ﾌﾘﾊ25,ﾌﾘﾊﾞｽ錠25㎎
ﾌﾘﾊ50,ﾌﾘﾊﾞｽ錠50mg
ﾌﾘﾊO5,ﾌﾘﾊﾞｽOD錠50mg
ﾌﾘﾊOD,ﾌﾘﾊﾞｽOD錠75㎎
ﾌﾘﾝ5,ﾌﾟﾘﾝﾍﾟﾗﾝ錠5mg
ﾌﾙｲ1,★ﾌﾙｲﾄﾗﾝ錠1㎎★
ﾌﾙｲ2,ﾌﾙｲﾄﾗﾝ錠2mg
ﾌﾙｺ,ﾌﾙｺﾅｿﾞｰﾙｶﾌﾟｾﾙ100mg「ﾃﾊﾞ」
ﾌﾟﾙｾﾞ,プルゼニド
ﾌﾙｾ12,ﾌﾟﾙｾﾞﾆﾄﾞ錠12mg
ﾌﾙﾀ,ﾌﾙﾀﾐﾄﾞ錠125mgﾏｲﾗﾝ
ﾌﾙﾆ1JG,ﾌﾙﾆﾄﾗｾﾞﾊﾟﾑ錠1mgJG
ﾌﾙﾆﾄ1,ﾌﾙﾆﾄﾗｾﾞﾊﾟﾑ錠1㎎
ﾌﾙﾆﾄ2,ﾌﾙﾆﾄﾗｾﾞﾊﾟﾑ錠2㎎★
ﾌﾙﾌ100,ブルフエェン１００
ﾌﾙﾍ,ﾌﾙﾍﾟﾝ錠4mg
ﾌﾚOD50,ﾌﾟﾚﾀｰﾙOD錠50㎎
ﾌﾚﾀOD,ﾌﾟﾚﾀｰﾙOD錠100㎎★
ﾌﾞﾚﾃﾞ50,ブレディニン５０ｍｇ
ﾌﾚﾄ,ﾌﾟﾚﾄﾞﾆﾝ錠5㎎
ﾌﾚﾄ1,ﾌﾟﾚﾄﾞﾆｿﾞﾛﾝ錠1㎎★
ﾌﾚﾄ5,ﾌﾟﾚﾄﾞﾆｿﾞﾛﾝ錠5mg★
ﾌﾚﾏ,ﾌﾟﾚﾏﾘﾝ錠0.625㎎
ﾌﾚﾐ,ﾌﾟﾚﾐﾈﾝﾄ錠
ﾌﾚﾛﾝ,ﾌﾟﾚﾛﾝ錠5mg★
ﾌﾟﾛ,ﾌﾟﾛﾌｧﾍﾟﾉﾝ塩酸塩錠150mg｢ｵｰﾊﾗ｣
ﾌﾛｸ0.5,ﾌﾟﾛｸﾞﾗﾌｶﾌﾟｾﾙ0.5mg
ﾌﾛｸ1,ﾌﾟﾛｸﾞﾗﾌｶﾌﾟｾﾙ1mg
ﾌﾛｻ20,ﾌﾟﾛｻｲﾘﾝ錠20μg
ﾌﾟﾛｽ,ﾌﾟﾛｽﾀｰﾙ25mg
ﾌﾛｽ25,ﾌﾟﾛｽﾀｰﾙ錠 25mg
ﾌﾟﾛｽ50,ﾌﾟﾛｽﾀｰﾙＬ錠50mg
ﾌﾛｾ,ﾌﾛｾﾐﾄﾞ錠10㎎
ﾌﾛｾ20,ﾌﾛｾﾐﾄﾞ錠20mg(NP)
ﾌﾛｾ20ﾀ,ﾌﾛｾﾐﾄﾞ錠20
ﾌﾛｾ40,ﾌﾛｾﾐﾄﾞ錠40mg
ﾌﾛﾀ,ﾌﾟﾛﾀﾉｰﾙS 15mg
ﾌﾛﾁ,ﾌﾞﾛﾁｿﾞﾗﾑOD★0.25沢井
ﾌﾞﾛﾁ,ﾌﾞﾛﾁｿﾞﾗﾑ0.25mg「ﾄｰﾜ」
ﾌﾛﾁ0.25,ﾌﾞﾛﾁｿﾞﾗﾑ錠0.25沢井
ﾌﾛﾁ25,ﾌﾟﾛﾁｱﾃﾞﾝ錠25
ﾌﾛﾁO,ﾌﾞﾛﾁｿﾞﾗﾑOD「ﾄｰﾜ」
ﾌﾛﾃ10,ﾌﾟﾛﾃｶｼﾞﾝ錠10
ﾌﾛﾃOD,ﾌﾟﾛﾃｶｼﾞﾝOD錠10mg
ﾌﾛﾆ,ﾌﾞﾛﾆｶ錠80㎎
ﾌﾛﾉ150,ﾌﾟﾛﾉﾝ錠150㎎
ﾌﾟﾛﾊﾞ,ﾌﾟﾛﾊﾟﾌｪﾉﾝ150mg
ﾌﾛﾋ,ﾌﾟﾛﾋﾟﾍﾞﾘﾝ塩酸塩錠10mgNS
ﾌﾛﾌ12,ﾌﾞﾛﾌﾟﾚｽ錠12mg★
ﾌﾛﾌ2,ﾌﾞﾛﾌﾟﾚｽ錠2mg
ﾌﾛﾌ4,ﾌﾞﾛﾌﾟﾚｽ錠4mg
ﾌﾛﾌ8,ﾌﾞﾛﾌﾟﾚｽ錠8
ﾌﾛﾍ,ﾌﾟﾛﾍﾞﾗ錠2.5㎎
ﾌﾛﾍﾊ,ﾌﾟﾛﾍﾊﾟｰﾙ配合錠
ﾌﾛﾏ,ﾌﾟﾛﾏｯｸD錠75㎎
ﾌﾞﾛﾑ,ﾌﾞﾛﾑﾍｷｼﾝ塩酸塩錠4mg
ﾌﾛﾓ100,ﾌﾛﾓｯｸｽ錠100mg
ﾌﾛﾓ75,ﾌﾛﾓｯｸｽ75mg
ﾌﾛﾘ,ﾌﾛﾘﾈﾌ錠0.1mg
ﾌﾛﾚ,ﾌﾟﾛﾚﾅｰﾙ錠 5μmg
ﾌﾟﾛﾚ,ﾌﾟﾛﾚﾅｰﾙ5μg
ﾌﾛﾝ5,ﾌﾞﾛﾝｺﾘﾝ錠 50mg
ﾍｲｽ02,"ﾍﾞｲｽﾝ錠0,2mg"
ﾍｲｽ03,ﾍﾞｲｽﾝ錠0.3mg
ﾍｲｽOD,"ﾍﾞｲｽﾝOD錠0,2"
ﾍｲｽｵ03,ﾍﾞｲｽﾝOD0.3mg
ﾍｹﾀA,ﾍﾞｹﾞﾀﾐﾝA錠
ﾍｹﾀB,ﾍﾞｹﾞﾀﾐﾝ錠B
ﾍｻﾃ,×ﾍﾞｻﾞﾃｰﾄSR錠200
ﾍｻﾄ200,ﾍﾞｻﾄｰﾙSR錠200mg
ﾍｻﾌ,ﾍﾞｻﾞﾌｨﾌﾞﾗｰﾄSR錠200mg沢井
ﾍｻﾌ沢井,ﾍﾞｻﾞﾌｨﾌﾞﾗｰﾄSR100mg★沢井
ﾍｼｹ,ﾍﾞｼｹｱOD錠5㎎★
ﾍｼｹ5,ﾍﾞｼｹｱ錠5㎎
ﾍｼｹOD2.5,ﾍﾞｼｹｱOD錠2.5mg★
ﾍｼｹｱ,ﾍﾞｼｹｱ錠2.5㎎
ﾍﾀﾆ,ﾍﾞﾀﾆｽ錠50㎎
ﾍﾀﾆ25,ﾍﾞﾀﾆｽ錠25mg★
ﾍﾀﾋ,ﾍﾞﾀﾋｽﾁﾝﾒｼﾙ塩酸錠6mgﾄｰﾜ
ﾍﾀﾏ50,ﾍﾞﾀﾏｯｸ錠50㎎
ﾍﾞﾀﾒ,ﾍﾞﾀﾒﾀｿﾞﾝ錠0.5mg「ｻﾜｲ」
ﾍﾞﾆ,ﾍﾞﾆｼﾞﾋﾟﾝ塩酸塩4mg「ﾄｰﾜ」
ﾍﾞﾆｼﾞ,ﾍﾞﾆｼﾞﾋﾟﾝ塩酸塩錠4mgｱﾒﾙ
ﾍﾞﾆｼﾞﾋﾟﾝ,ﾍﾞﾆｼﾞﾋﾟﾝ塩酸塩２mg｢ｱﾒﾙ｣
ﾍﾈﾂ25,ﾍﾞﾈｯﾄ2.5mg
ﾍﾈﾄ,ﾍﾞﾈﾄﾘﾝ錠2mg
ﾍﾞﾊｲ,ﾍﾞﾊｲﾄﾞRA配合錠
ﾍﾊｲ4,ﾍﾞﾊｲﾄﾞ錠4㎎
ﾍﾞﾌﾟﾘ,ﾍﾞﾌﾟﾘｺｰﾙ50mg
ﾍﾗｻ,ﾍﾞﾗｻｽLA錠60μg
ﾍﾞﾗﾊﾟ,ﾍﾞﾗﾊﾟﾐﾙ塩酸塩錠40mgJG
ﾍﾘｱ,ﾍﾟﾘｱｸﾁﾝ4mg
ﾍﾘﾁ,ﾍﾞﾘﾁｰﾑｶﾌﾟｾﾙ
ﾍﾘﾝ,ﾍﾟﾘﾝﾄﾞﾌﾟﾘﾙｴﾙﾌﾞﾐﾝ錠4mgｻﾜｲ
ﾍﾙ,ﾍﾙﾍﾞｯｻｰ錠30㎎★
ﾍﾙｴ150,ﾍﾟﾙｻﾝﾁﾝL150mg
ﾍﾙｻ100,ﾍﾟﾙｻﾝﾁﾝ錠100mg
ﾍﾙｻ25,ﾍﾟﾙｻﾝﾁﾝ錠25mg
ﾍﾙｼ20,ﾍﾟﾙｼﾋﾟﾝ錠20mg
ﾍﾙｼL4,ﾍﾟﾙｼﾞﾋﾟﾝLA40mg
ﾍﾙｿ,ﾍﾞﾙｿﾑﾗ錠15mg
ﾍﾙﾍ,ﾍﾙﾍﾞｯｻｰRｶﾌﾟｾﾙ100mg
ﾍﾟﾙﾏ,ペルマックス錠250μｇ
ﾍﾙﾏ50,ﾍﾟﾙﾏｯｸｽ錠50μg
ﾍﾛﾃ2,ﾍﾞﾛﾃｯｸ錠 2.5mg
ﾍﾝｻ10,ﾍﾞﾝｻﾞﾘﾝ錠10mg★
ﾍﾝｻ5,ﾍﾞﾝｻﾞﾘﾝ錠5
ﾍﾝｽ,ﾍﾞﾝｽﾞﾌﾞﾛﾏﾛﾝ錠50 ﾄｰﾜ
ﾍﾝﾀ250,ﾍﾟﾝﾀｻ錠250㎎
ﾍﾝﾀ500,ﾍﾟﾝﾀｻ錠500㎎★
ﾍﾝﾄ,ﾍﾟﾝﾄﾅ錠4㎎
ﾎｰﾈ,ﾎｰﾈﾙ錠0.15μg
ﾎｸﾅ1,ﾎｸﾅﾘﾝ1mg
ﾎｸﾘ,ﾎﾞｸﾞﾘﾎﾞｰｽ0.2㎎
ﾎｸﾘOD,ﾎﾞｸﾞﾘﾎﾞｰｽOD錠0.3mg
ﾎﾞｸﾞﾘOD,ﾎﾞｸﾞﾘﾎﾞｰｽOD錠0.2mg「ﾄｰﾜ」
ﾎｽﾃ,ﾎﾟｽﾃﾘｻﾞﾝ
ﾎｽﾐ,ﾎｽﾐｼﾝ錠 500mg
ﾎｽﾚ,ﾎｽﾚﾉｰﾙﾁｭｱﾌﾞﾙ錠250mg
ﾎﾅﾛ5,ﾎﾞﾅﾛﾝ錠5mg
ﾎﾉﾃ,ﾎﾞﾉﾃｵ錠1mg
ﾎﾟﾏ,ﾎﾟﾏﾘｽﾄ4mg
ﾎﾓｸ,ﾎﾓｸﾛﾐﾝ錠10mg
ﾎﾗｷ2,ﾎﾟﾗｷｽ錠2
ﾎﾗｷ3,ﾎﾟﾗｷｽ錠3mg
ﾎﾟﾗﾗ,ﾎﾟﾗﾗﾐﾝ錠2mg
ﾎﾘｿ02,ﾎﾘｿﾞﾝ錠2mg
ﾎﾘﾌ500,ﾎﾟﾘﾌﾙ錠500㎎
ﾎﾙﾀ25,ﾎﾞﾙﾀﾚﾝ錠25㎎
ﾎﾙﾀﾚ,ﾎﾞﾙﾀﾚﾝSRｶﾌﾟｾﾙ37.5㎎
ﾏｲｽ10,ﾏｲｽﾘｰ錠10mg
ﾏｲｽﾀ10,ﾏｲｽﾀﾝ錠10㎎
ﾏｲｽﾘ5,ﾏｲｽﾘｰ錠5mg
ﾏｵｳ,麻黄附子細辛湯
ﾏｸﾐ250,ﾏｸﾞﾐｯﾄ錠250mg
ﾏｸﾐ330,ﾏｸﾞﾐｯﾄ錠330mg
ﾏｸﾐ500,ﾏｸﾞﾐｯﾄ錠 500mg
ﾏｸﾗ250,ﾏｸﾞﾗｯｸｽ錠250mg
ﾏｸﾗ330,ﾏｸﾞﾗｯｸｽ330mg
ﾏｸﾗ5,ﾏｸﾞﾗｯｸｽ錠 500mg
ﾏﾂｸ,ﾏｯｸﾀｰｾﾞ配合錠
ﾏﾄﾊ,ﾏﾄﾞﾊﾟｰ錠
ﾏﾘﾚ,ﾏﾘﾚｵﾝN錠5mg
ﾐｵﾅ50,ﾐｵﾅｰﾙ錠50mg
ﾐｵﾘ50,ﾐｵﾘﾗｰｸ錠50mg
ﾐｶﾑBP,ﾐｶﾑﾛ配合錠BP★
ﾐｶﾑﾛ,ﾐｶﾑﾛ配合錠AP
ﾐｶﾙ20,ﾐｶﾙﾃﾞｨｽ錠20mg
ﾐｶﾙ40,ﾐｶﾙﾃﾞｨｽ錠40mg
ﾐｸﾘ,ﾐｸﾞﾘｽﾃﾝ錠20mg
ﾐｺｼ,ﾐｺｼｽﾄｶﾌﾟｾﾙ100㎎
ﾐｺﾝ,ﾐｺﾝﾋﾞ配合錠BP
ﾐｺﾝA,ﾐｺﾝﾋﾞ配合錠AP★
ﾐﾁ,ﾐﾁｸﾞﾘﾆﾄﾞCA錠10mg
ﾐﾆﾌ05,"ﾐﾆﾌﾟﾚｽ錠0,5mg"
ﾐﾆﾌ1,ﾐﾆﾌﾟﾚｽ 1mg
ﾐﾉ100,ﾐﾉﾏｲｼﾝｶﾌﾟｾﾙ100mg
ﾐﾉｻ,ﾐﾉｻｲｸﾘﾝ塩酸塩錠100mg「ｻﾜｲ」
ﾐﾉﾍ,ﾐﾉﾍﾟﾝ錠100
ﾐﾉﾏ100,ﾐﾉﾏｲｼﾝ錠100mg
ﾐﾉﾏｲ50,★ﾐﾉﾏｲｼﾝ錠50㎎★
ﾐﾔﾋ,ﾐﾔBM錠
ﾐﾙﾅ15,ﾐﾙﾅｼﾌﾟﾗﾝ錠15「ﾄｰﾜ」
ﾐﾙﾏ,ﾐﾙﾏｸﾞ錠350㎎
ﾐﾝ0.25,×ﾐﾝｻﾞｲﾝ錠0.25mg
ﾑｺｻ,ﾑｺｻｰﾙ15
ﾑｺｻL45,ﾑｺｻｰﾙLｶﾌﾟｾﾙ45mg
ﾑｺｽ100,ﾑｺｽﾀ錠100mg
ﾑｺｿ15,ﾑｺｿﾙﾊﾞﾝ錠15mg
ﾑｺｿl,ﾑｺｿﾙﾊﾞﾝL錠45mg★
ﾑｺｿL45,ﾑｺｿﾙﾊﾞﾝLｶﾌﾟｾﾙ45mg
ﾑｺｿﾚ15,★ﾑｺｿﾚｰﾄ錠15㎎★
ﾑｺﾀ25,ﾑｺﾀﾞｲﾝ錠 250mg
ﾑｺﾀ500,ﾑｺﾀﾞｲﾝ錠500mg
ﾒｲｱ,ﾒｲｱｸﾄMS錠 100mg
ﾒｲﾗ1,ﾒｲﾗｯｸｽ錠1mg
ﾒｲﾗ2,ﾒｲﾗｯｸｽ錠2mg★
ﾒｲﾝ0.625,ﾒｲﾝﾃｰﾄ錠0.625mg★
ﾒｲﾝ2.5,ﾒｲﾝﾃｰﾄ錠2.5㎎
ﾒｲﾝ5,ﾒｲﾝﾃｰﾄ錠5㎎
ﾒｷｼ,ﾒｷｼﾁｰﾙｶﾌﾟｾﾙ100mg
ﾒｷｼ50,ﾒｷｼﾁｰﾙｶﾌﾟｾﾙ50mg
ﾒｷｼﾊ,ﾒｷｼﾊﾞｰﾙｶﾌﾟｾﾙ100㎎★
ﾒｷｼﾚ50,ﾒｷｼﾚﾁﾝｶﾌﾟｾﾙ50mgJG
ﾒｺﾊﾞ,ﾒｺﾊﾞﾗﾐﾝ　500μg
ﾒｺﾊ500,×ﾒｺﾊﾞﾗﾐﾝ錠500㎎
ﾒｼｺ15,ﾒｼﾞｺﾝ錠15mg
ﾒﾀﾋ,ﾒﾀﾋｽﾛﾝ錠
ﾒﾁ,ﾒﾁｽﾀ250
ﾒﾁｸ,ﾒﾁｸｰﾙ錠500μg
ﾒﾁｺ250,ﾒﾁｺﾊﾞｰﾙ錠250μg
ﾒﾁｺ500,ﾒﾁｺﾊﾞｰﾙ錠500μg
ﾒﾁﾙ05,ﾒﾁﾙｼﾞｺﾞｷｼﾝ錠 0.05mg 「ﾀｲﾖｰ」
ﾒﾃﾂ,ﾒﾃﾞｯﾄ錠250mg
ﾒﾄｸ,ﾒﾄｸﾞﾙｺ錠250㎎
ﾒﾄｸ5,ﾒﾄｸﾞﾙｺ錠500mg★
ﾒﾄﾄ,ﾒﾄﾄﾚｷｻｰﾄｶﾌﾟｾﾙ2mg
ﾒﾄﾎ250,メトホルミン２５０ｍｇ
ﾒﾄﾘD,ﾒﾄﾘｼﾞﾝD錠2㎎
ﾒﾄﾘｼ,ﾒﾄﾘｼﾞﾝ錠2mg★
ﾒﾄﾚ,ﾒﾄﾚｰﾄ錠 2mg
ﾒﾅ,ﾒﾅﾃﾄﾚﾉﾝ15mg
ﾒﾈｼ100,ﾒﾈｼｯﾄ錠100mg
ﾒﾊﾛ10,ﾒﾊﾞﾛﾁﾝ錠10mg
ﾒﾊﾛ22,ﾒﾊﾞﾛﾁﾝ錠5mg
ﾒﾌﾁ5,ﾒﾌﾟﾁﾝ錠 50μmg
ﾒﾏﾘ1,ﾒﾏﾘｰOD10mg★
ﾒﾏﾘ10,ﾒﾏﾘｰ錠10㎎
ﾒﾏﾘ20,ﾒﾏﾘｰ錠20㎎
ﾒﾏﾘ5,ﾒﾏﾘｰ錠5㎎
ﾒﾏﾘO2,ﾒﾏﾘｰOD錠20mg★
ﾒﾏﾘOD,ﾒﾏﾘｰOD錠5mg★
ﾒﾘｽ1,ﾒﾘｽﾛﾝ錠 12mg
ﾒﾘｽ6,ﾒﾘｽﾛﾝ錠6mg
ﾒﾙｶ5,ﾒﾙｶｿﾞｰﾙ錠5mg
ﾒﾙﾋﾞ,ﾒﾙﾋﾞﾝ錠250mg
ﾒﾚ,ﾒﾚｯｸｽ錠1mg
ﾒﾛｷ,ﾒﾛｷｼｶﾑ錠10mg｢ｱﾒﾙ｣
ﾒﾝﾄ7.5,ﾒﾝﾄﾞﾝ7.5mg
ﾓｻ,ﾓｻﾌﾟﾘﾄﾞｸｴﾝ酸塩5mg「ﾄｰﾜ」
ﾓｻﾌ,ﾓｻﾌﾟﾘﾄﾞｸｴﾝ酸塩錠5㎎明治
ﾓﾋﾂ,ﾓｰﾋﾞｯｸｶﾌﾟｾﾙ10mg
ﾓﾋﾂ10,ﾓｰﾋﾞｯｸ錠10mg
ﾓﾝﾃﾙ,ﾓﾝﾃﾙｶｽﾄ10mg
ﾕｰｴﾌ,ﾕｰｴﾌﾃｪ配合ｶﾌﾟｾﾙT100
ﾕｴﾌ1,ﾕｰｴﾌﾃｨｰｶﾌﾟｾﾙ 100mg
ﾕﾅｼ,ﾕﾅｼﾝ錠375mg
ﾕﾆｺ4,ﾕﾆｺﾝ錠 400mg
ﾕﾆｼLD,ﾕﾆｼｱ配合錠LD★
ﾕﾆｼｱ,ﾕﾆｼｱ配合錠HD
ﾕﾆﾌLA2,ﾕﾆﾌｨﾙLA200mg
ﾕﾊﾝ,×ﾕｰﾊﾟﾝ錠0.5㎎
ﾕﾊﾝ1,ﾕｰﾊﾟﾝ錠1mg★
ﾕﾍﾗ,ﾕﾍﾞﾗ錠50㎎
ﾕﾍﾗN,ﾕﾍﾞﾗNｿﾌﾄｶﾌﾟｾﾙ200mg
ﾕﾍﾗN10,ﾕﾍﾞﾗNｶﾌﾟｾﾙ100mg
ﾕﾘ,ﾕﾘﾉｰﾑ50
ﾕﾘOD,ﾕﾘｰﾌOD4mg
ﾕﾘｰﾌ2,ﾕﾘｰﾌ錠2㎎★
ﾕﾘﾉ25,ﾕﾘﾉｰﾑ錠25mg★
ﾕﾘﾌ2,ﾕﾘｰﾌ錠 2mg
ﾕﾘﾌ4,ﾕﾘｰﾌ錠 4mg
ﾕﾛｼ1,ﾕｰﾛｼﾞﾝ1
ﾕﾛｼ2,ﾕｰﾛｼﾞﾝ2mg錠
ﾖｸｲﾆﾝ,ﾖｸｲﾆﾝｴｷｽ錠ｺﾀﾛｰ
ﾖﾃﾙS80,ﾖｰﾃﾞﾙS糖衣錠80mg
ﾗｷｿ,ﾗｷｿﾍﾞﾛﾝ錠
ﾗｼｸ10,ﾗｼｯｸｽ錠10㎎★
ﾗｼﾂ20,ﾗｼｯｸｽ錠20mg
ﾗｼｯ40,ﾗｼｯｸｽ錠40mg
ﾗｼﾚ,ﾗｼﾞﾚｽ錠150mg
ﾗﾂｸ,ﾗｯｸﾋﾞｰ錠
ﾗﾆﾁ150,ラニチジン１５０
ﾗﾆﾗ005,ﾗﾆﾗﾋﾟｯﾄ錠0.05mg
ﾗﾆﾗﾋﾟ,ﾗﾆﾗﾋﾟｯﾄﾞ錠0.1mg
ﾗﾌﾁ,ﾗﾌﾁｼﾞﾝ10ｍｇ
ﾗﾍﾌ,ﾗﾍﾞﾌﾟﾗｿﾞｰﾙNa錠10㎎
ﾗﾍﾞﾌﾟﾗ,ﾗﾍﾞﾌﾟﾗｿﾞｰﾙNa錠10mg「ﾄｰﾜ」
ﾗﾐｸ,ﾗﾐｸﾀｰﾙ錠25mg
ﾗﾐｸ100,ﾗﾐｸﾀｰﾙ錠100mg
ﾗﾐｼ,ﾗﾐｼｰﾙ錠125㎎
ﾗﾛｷ,ﾗﾛｷｼﾌｪﾝ塩酸塩錠60mg「ﾄｰﾜ」
ﾗﾝｿ15,ﾗﾝｿﾌﾟﾗｿﾞｰﾙOD錠15mg東和
ﾗﾝｿ30,ﾗﾝｿﾌﾟﾗｿﾞｰﾙOD30mg東和★
ﾗﾝｿODﾀｲﾖｰ,ﾗﾝｿﾌﾟﾗｿﾞｰﾙOD錠15mgﾀｲﾖｰ
ﾗﾝｿﾃﾊﾞ,ﾗﾝｿﾌﾟﾗｿﾞｰﾙOD15ﾃﾊﾞ★
ﾗﾝﾃ,ﾗﾝﾃﾞｰﾙﾁｵﾝ錠100mg
ﾗﾝﾃ10,ﾗﾝﾃﾞﾙ錠10㎎★
ﾗﾝﾃ20,ﾗﾝﾃﾞﾙ錠20
ﾗﾝﾄ0.5,★ﾗﾝﾄﾞｾﾝ錠0.5㎎★
ﾗﾝﾄ1,ﾗﾝﾄﾞｾﾝ錠1mg★
ﾘｰﾏ,ﾘｰﾏｽ錠100ｍｇ
ﾘｰﾏｽ,ﾘｰﾏｽ錠200㎎
ﾘｳﾏ2,リウマトレックス２ｍｇ
ﾘｵﾅ,ﾘｵﾅ錠250mg
ﾘｵﾍ,ﾘｵﾍﾞﾙ配合錠HD
ﾘｸｼ,ﾘｸｼｱﾅ錠15mg
ﾘｸｼ3,ﾘｸｼｱﾅ錠30mg
ﾘｸｼ60,リクシアナ６０ｍｇ
ﾘｼﾉ,ﾘｼﾉﾌﾟﾘﾙ錠10mg「ﾌｧｲｻﾞｰ」
ﾘｼﾉﾌﾟ,ﾘｼﾉﾌﾟﾘﾙ錠10mg｢ｻﾜｲ｣
ﾘｽﾊ0.5,ﾘｽﾊﾟﾀﾞｰﾙ0.5mg
ﾘｽﾊ01,ﾘｽﾊﾟﾀﾞｰﾙOD錠0.5㎎
ﾘｽﾊ1,ﾘｽﾊﾟﾀﾞｰﾙ錠1mg
ﾘｽﾊ2,ﾘｽﾊﾟﾀﾞｰﾙ錠2mg
ﾘｽﾊOD,ﾘｽﾊﾟﾀﾞｰﾙOD錠1㎎
ﾘｽﾊｵ2,ﾘｽﾊﾟﾀﾞｰﾙOD錠 2mg
ﾘｽﾍ,ﾘｽﾍﾟﾘﾄﾞﾝ錠1mgｱﾒﾙ
ﾘｽﾍﾟ,ﾘｽﾍﾟﾘﾄﾞﾝ錠0.5ｍｇ「ｱﾒﾙ」
ﾘｽﾍ1,ﾘｽﾍﾟﾘﾄﾞﾝOD1mg
ﾘｽﾍﾟ1,ﾘｽﾍﾟﾘﾄﾞﾝ錠1mg｢ｻﾜｲ｣
ﾘｽﾐ1,ﾘｽﾐｰ錠 1mg
ﾘｽﾐ10,ﾘｽﾞﾐｯｸ錠10㎎
ﾘｽﾐ2,ﾘｽﾐｰ錠 2mg
ﾘｽﾓ,ﾘｽﾓﾀﾞﾝｶﾌﾟｾﾙ100mg
ﾘｽﾓ150,★ﾘｽﾓﾀﾞﾝR錠150㎎★
ﾘｽﾓﾀ,ﾘｽﾓﾀﾞﾝｶﾌﾟｾﾙ50㎎
ﾘｾ5,ﾘｰｾﾞ錠5mg
ﾘﾊﾟｸ,ﾘﾊﾟｸﾚｵﾝｶﾌﾟｾﾙ150mg
ﾘﾊﾛ1,★ﾘﾊﾞﾛ錠1㎎★
ﾘﾊﾛ2,ﾘﾊﾞﾛ 2mg
ﾘﾊﾛOD,ﾘﾊﾞﾛOD錠2mg★
ﾘﾊﾛOD1,ﾘﾊﾞﾛOD錠1★
ﾘﾋﾃ,ﾘﾋﾟﾃﾞｨﾙ錠80mg
ﾘﾋﾃ53.5,ﾘﾋﾟﾃﾞﾙ錠53.5mg★
ﾘﾋﾄ10,ﾘﾋﾟﾄｰﾙ錠10mg
ﾘﾋﾄ5,ﾘﾋﾟﾄｰﾙ錠5mg
ﾘﾋﾘ100,ﾘﾋﾞﾘｽﾀｰ錠100
ﾘﾌｱ,ﾘﾌｧｼﾞﾝｶﾌﾟｾﾙ150mg
ﾘﾌﾚ15,ﾘﾌﾚｯｸｽ錠15㎎
ﾘﾎｻ05,ﾘﾎﾟｻﾞｰﾄ錠5
ﾘﾎｻ1,ﾘﾎﾟｻﾞｰﾄ錠10mg★
ﾘﾎﾄ,ﾘﾎﾞﾄﾘｰﾙ錠0.5mg
ﾘﾎﾄ1,ﾘﾎﾞﾄﾘｰﾙ錠1mg★
ﾘﾎﾊ10,ﾘﾎﾟﾊﾞｽ錠10㎎
ﾘﾎﾟﾊﾞ5,ﾘﾎﾟﾊﾞｽ錠5mg
ﾘﾏｽ,ﾘｰﾏｽ錠200mg
ﾘﾏｽ100,ﾘｰﾏｽ錠100mg★
ﾘﾏﾁ100,ﾘﾏﾁﾙ錠100mg
ﾘﾏﾁ5,ﾘﾏﾁﾙ錠50mg
ﾘﾏﾌ,ﾘﾏﾌﾟﾛｽﾄｱﾙﾌｧﾃﾞｽｸ錠5μg
ﾘﾏﾙ,ﾘﾏﾙﾓﾝ錠5μg
ﾘﾘｶ25,ﾘﾘｶｶﾌﾟｾﾙ25㎎
ﾘﾘｶ75,ﾘﾘｶｶﾌﾟｾﾙ75㎎
ﾘﾘｶOD25,ﾘﾘｶOD25mg
ﾘﾘｶOD75,ﾘﾘｶOD75mg
ﾘﾙﾏ,ﾘﾙﾏｻﾞﾎﾝ塩酸塩錠1mg「MEEK」
ﾘﾝｻﾝ20,ﾘﾝ酸ｺﾃﾞｲﾝ錠20mg
ﾘﾝﾃ,ﾘﾝﾃﾞﾛﾝ錠0.5mg
ﾙｰ,ﾙｰﾗﾝ4
ﾙｼｵ10,ﾙｼﾞｵﾐｰﾙ10mg
ﾙｼｵ25,ﾙｼﾞｵﾐｰﾙ錠25mg
ﾙｾﾌ,ﾙｾﾌｨ錠2.5mg
ﾙﾈｽ,ﾙﾈｽﾀ錠1mg
ﾙﾈｽ2,ﾙﾈｽﾀ錠2mg★
ﾙﾈｽ3,ﾙﾈｽﾀ3mg★
ﾙﾈﾄ,ﾙﾈﾄﾛﾝ錠1mg
ﾙﾌﾗ,ﾙﾌﾟﾗｯｸ錠 4mg
ﾙﾌﾗ8,ﾙﾌﾟﾗｯｸ 8mg
ﾙﾎﾂ25,ﾙﾎﾞｯｸｽ錠25
ﾙﾎﾂ50,ﾙﾎﾞｯｸｽ錠50
ﾙﾗﾝ4,ルーラン４ｍｇ
ﾙﾗﾝ8,ﾙｰﾗﾝ錠8mg★
ﾙﾘ,ﾙﾘｯﾄﾞ錠150mg
ﾚｷｿ,ﾚｷｿﾀﾝ錠2㎎
ﾚｷｿ1,ﾚｷｿﾀﾝ錠1mg
ﾚｷｿ5,ﾚｷｿﾀﾝ錠5mg
ﾚｷﾂ,ﾚｷｯﾌﾟ錠2㎎
ﾚｷﾂ025,ﾚｷｯﾌﾟ錠0.25㎎
ﾚｷﾂ1,ﾚｷｯﾌﾟ錠1㎎
ﾚｷﾌCR,ﾚｷｯﾌﾟCR錠2mg
ﾚｸｻ,ﾚｸｻﾌﾟﾛ錠10mg
ﾚｸﾁ25,ﾚｸﾁｿﾞｰﾙ錠25mg
ﾚｸﾊ12,ﾚｸﾞﾊﾟﾗ錠12.5mg
ﾚｸﾊ25,ﾚｸﾞﾊﾟﾗ錠25㎎
ﾚｺﾙ,ﾚｺﾙｸ錠25㎎
ﾚｻﾙ,ﾚｻﾞﾙﾀｽ配合錠HD
ﾚｻﾙLD,ﾚｻﾞﾙﾀｽLD配合錠★
ﾚｽﾌ,ﾚｽﾌﾟﾚﾝ錠20mg
ﾚｽﾐ,ﾚｽﾐｯﾄ錠5㎎
ﾚｽﾘ,ﾚｽﾘﾝ錠25㎎
ﾚｽﾘ5,レスリン錠５０
ﾚﾅ,ﾚﾅﾃﾞｯｸｽ4mg
ﾚﾅｼ,ﾚﾅｼﾞｪﾙ錠250mg
ﾚﾆﾍ,ﾚﾆﾍﾞｰｽ5
ﾚﾆﾍ1,ﾚﾆﾍﾞｰｽ錠 10mg
ﾚﾆﾍ25,ﾚﾆﾍﾞｰｽ錠2.5mg
ﾚﾆﾍ5,ﾚﾆﾍﾞｰｽ錠5
ﾚﾊﾐ,ﾚﾊﾞﾐﾋﾟﾄﾞ錠100mgNP
ﾚﾊﾞﾐ,ﾚﾊﾞﾐﾋﾟﾄﾞ100mg「ﾄｰﾜ」
ﾚﾊﾞﾐOD,ﾚﾊﾞﾐﾋﾟﾄﾞOD錠100mg
ﾚﾊﾐSW,ﾚﾊﾞﾐﾋﾟﾄﾞ錠100mg「ﾄｰﾜ」
ﾚﾌ,ﾚﾌﾄｰｾﾞ錠50mg
ﾚﾎﾄ,ﾚﾎﾞﾄﾐﾝ5
ﾚﾎﾄ25,ﾚﾎﾞﾄﾐﾝ錠25mg
ﾚﾎﾌ,ﾚﾎﾞﾌﾛｷｻｼﾝ錠100mg
ﾚﾎﾞﾌ,ﾚﾎﾞﾌﾛｷｻｼﾝ500mg「DSEP」
ﾚﾎﾌ2,ﾚﾎﾞﾌﾛｷｻｼﾝ錠250mg
ﾚﾎﾌ5,ﾚﾎﾞﾌﾛｷｻｼﾝ500mgﾀﾅﾍﾞ
ﾚﾐﾁ,ﾚﾐｯﾁｶﾌﾟｾﾙ2.5μg
ﾚﾐｯﾁOD,レミッチOD錠２.５μg
ﾚﾐﾆ,ﾚﾐﾆｰﾙOD錠8㎎
ﾚﾐﾆ12,ﾚﾐﾆｰﾙ OD錠12㎎
ﾚﾐﾆ4,ﾚﾐﾆｰﾙOD錠4㎎
ﾚﾐﾆﾙ12,ﾚﾐﾆｰﾙ錠12mg★
ﾚﾒﾛ,ﾚﾒﾛﾝ錠15㎎
ﾚﾘﾄ5,ﾚﾘｰﾄ錠5㎎
ﾚﾝﾃ,×ﾚﾝﾃﾞﾑ0.25
ﾚﾝﾄ025,"ﾚﾝﾄﾞﾙﾐﾝ錠0,25mg"
ﾚﾝﾄD,"ﾚﾝﾄﾞﾙﾐﾝD錠0,25mg"
ﾛｶﾙ0.5,ﾛｶﾙﾄﾛｰﾙｶﾌﾟｾﾙ0.5★
ﾛｶﾙﾄ,ﾛｶﾙﾄﾛｰﾙｶﾌﾟｾﾙ0.25
ﾛｷｻ,ﾛｷｻﾁｼﾞﾝ酢酸ｴｽﾃﾙ塩酸塩除放ｶﾌﾟｾﾙ75mg
ﾛｷｿ,ﾛｷｿﾆﾝ錠
ﾛｷｿｻﾜｲ,ﾛｷｿﾌﾟﾛﾌｪﾝNa60ｻﾜｲ
ﾛｷｿﾌ,ﾛｷｿﾌﾟﾛﾌｪﾝNa錠60ﾃﾊﾞ
ﾛｷｿﾌﾟ,ﾛｷｿﾌﾟﾛﾌｪﾝ60mg「ﾄｰﾜ」
ﾛｷｿﾏ,ﾛｷｿﾏﾘﾝ錠 60mg
ﾛｷﾍ60,ﾛｷﾍﾟｲﾝ錠60㎎
ﾛｺ1,ﾛｰｺｰﾙ錠10mg★
ﾛｺﾙ20,ﾛｰｺｰﾙ錠20mg
ﾛｺﾙ3,ﾛｰｺｰﾙ錠30mg
ﾛｻﾙ,ﾛｻﾙﾀﾝｶﾘｳﾑ錠25mg
ﾛｻﾙ50,ﾛｻﾙﾀﾝｶﾘｳﾑ錠50mg★
ﾛｻﾙﾋﾄﾞ,ﾛｻﾙﾋﾄﾞ配合錠LD「ﾄｰﾜ」
ﾛｽ,ﾛｽﾊﾞｽﾀﾁﾝ5mg「ﾄｰﾜ」
ﾛｽﾊﾞ,ﾛｽﾊﾞｽﾀﾁﾝOD2.5「ﾄｰﾜ」
ﾛｽﾊﾞｽ,ﾛｽﾊﾞｽﾀﾁﾝ錠2.5mg「DSEP」
ﾛｾﾚ,ﾛｾﾞﾚﾑ8㎎
ﾛﾄﾋ,ﾛﾄﾞﾋﾟﾝ錠25mg
ﾛﾅｾ04,ﾛﾅｾﾝ錠4mg
ﾛﾅｾ2,ﾛﾅｾﾝ錠2㎎
ﾛﾅｾ8,ﾛﾅｾﾝ錠8mg★
ﾛﾋﾌ,ﾛﾋﾌﾟﾉｰﾙ 2mg
ﾛﾋﾌ1,ﾛﾋﾌﾟﾉｰﾙ錠1
ﾛﾌﾗ,ﾛﾌﾗｾﾞﾌﾟ酸ｴﾁﾙ1mg
ﾛﾌﾚ,ﾛﾌﾟﾚｿｰﾙ錠20㎎
ﾛﾍﾐ01,ﾛﾍﾟﾐﾝｶﾌﾟｾﾙ1mg
ﾛﾗｾ,ﾛﾗｾﾞﾊﾟﾑ錠0.5mg
ﾛﾗﾀ,ﾛﾗﾀｼﾞﾝOD錠10㎎
ﾛﾗﾒ,ﾛﾗﾒｯﾄ錠1.0㎎
ﾛﾙｶ4,ﾛﾙｶﾑ錠4mg
ﾛﾙﾌ,ﾛﾙﾌｪﾅﾐﾝ60
ﾛﾚﾙ250,ﾛﾚﾙｺ錠250mg
ﾛﾝｹ,ﾛﾝｹﾞｽ錠10mg
ﾛﾝｹﾞｽ5,ﾛﾝｹﾞｽ錠5mg★
ﾛﾝｽ,ﾛﾝｽﾃﾛﾝ錠25mg
ﾜｰﾌ0.5,★ﾜｰﾌｧﾘﾝ錠0.5㎎★
ﾜｲﾃ,ﾜｲﾃﾝｽ錠2mg
ﾜｲﾊ05,ﾜｲﾊﾟｯｸｽ錠0.5
ﾜｲﾊﾂ,ﾜｲﾊﾟｯｸｽ錠1mg★
ﾜｶﾃﾞ,ﾜｶﾃﾞﾆﾝ腸溶錠10mg
ﾜｶﾃ5,ﾜｶﾃﾞﾆﾝ錠5mg
ﾜｸﾐ1,ﾜｰｸﾐﾝｶﾌﾟｾﾙ 1μmg
ﾜｿﾗ40,ﾜｿﾗﾝ錠40mg
ﾜﾌｱ,ﾜｰﾌｧﾘﾝ錠1mg
ﾜﾌｱ0.5,ﾜｰﾌｧﾘﾝ錠0.5㎎★
ﾜﾙﾌ,ﾜﾙﾌｧﾘﾝK錠1㎎
ﾜﾝ0.25,ﾜﾝｱﾙﾌｧ錠0.25
ﾜﾝｱ05,"ﾜﾝｱﾙﾌｧ錠0,5"
ﾜﾝｱ1,ﾜﾝｱﾙﾌｧ錠1.0
ﾜﾝﾄ,ﾜﾝﾄﾗﾑ錠100mg
